LON_CTR:London Control:123.900:L:9:LON:CTR:-:-:0301:0377:N051.32.26.870:W002.43.29.830::
LON_SC_CTR:London Control:132.600:LSC:8:LON:CTR:-:-:0301:0377:N051.28.58.203:E000.02.20.411::
LON_SC_CTR:London Control:132.600:LSC:8:LON-SC:CTR:-:-:0301:0377:N051.28.58.203:E000.02.20.411::
LON_N_CTR:London Control:133.700:LN:N:LON:CTR:-:-:0501:0577:N053.39.29.755:W001.07.20.927::
LON_W_CTR:London Control:126.070:LW:W:LON:CTR:-:-:0301:0377:N051.18.21.496:W004.09.51.334::
LON_C_CTR:London Control:127.100:LC:C:LON:CTR:-:-:0301:0377:N052.07.30.663:W000.03.23.581::
LON_E_CTR:London Control:121.220:LE:E:LON:CTR:-:-:0301:0377:N051.50.59.526:E001.35.59.281::
LTC_NW_CTR:London Control:121.270:TCNW:T:LTC:CTR:-:-:0301:0377:N051.41.16.486:W000.39.43.696::
LTC_NW_CTR:London Control:121.270:TCNW:T:LTC-NW:CTR:-:-:0301:0377:N051.41.16.486:W000.39.43.696::
LTC_NE_CTR:London Control:118.820:TCNE:T:LTC:CTR:-:-:0301:0377:N051.40.58.659:E000.09.47.389::
LTC_NE_CTR:London Control:118.820:TCNE:T:LTC-NE:CTR:-:-:0301:0377:N051.40.58.659:E000.09.47.389::
LTC_N_CTR:London Control:119.770:TCN:T:LTC:CTR:-:-:0301:0377:N051.44.35.639:W000.05.11.552::
LON_S_CTR:London Control:129.420:LS:S:LON:CTR:-:-:0301:0377:N051.12.49.331:E000.03.49.130::
LON_D_CTR:London Control:134.900:LD:D:LON:CTR:-:-:0301:0377:N051.09.53.050:E000.33.14.793::
LTC_SW_CTR:London Control:133.170:TCSW:T:LTC:CTR:-:-:0301:0377:N051.12.06.055:W000.38.07.959::
LTC_SW_CTR:London Control:133.170:TCSW:T:LTC-SW:CTR:-:-:0301:0377:N051.12.06.055:W000.38.07.959::
LTC_SE_CTR:London Control:120.520:TCSE:T:LTC:CTR:-:-:0301:0377:N051.19.14.860:E000.00.59.623::
LTC_SE_CTR:London Control:120.520:TCSE:T:LTC-SE:CTR:-:-:0301:0377:N051.19.14.860:E000.00.59.623::
LTC_S_CTR:London Control:134.120:TCS:T:LTC:CTR:-:-:0301:0377:N051.11.19.493:W000.11.26.423::
MAN_CTR:Scottish Control:118.770:M:5:MAN:CTR:-:-:0501:0577:N053.23.30.998:W003.08.03.998::
MAN_E_CTR:Scottish Control:133.800:ME:6:MAN:CTR:-:-:0501:0577:N053.28.29.359:W001.00.06.210::
MAN_W_CTR:Scottish Control:128.050:MW:5:MAN:CTR:-:-:0501:0577:N053.23.30.998:W003.08.03.998::

LTC_NW_CTR:London Control:121.270:TCNW:T:LON:CTR:-:-:0301:0377:N051.41.16.486:W000.39.43.696::
LTC_NE_CTR:London Control:118.820:TCNE:T:LON:CTR:-:-:0301:0377:N051.40.58.659:E000.09.47.389::
LTC_N_CTR:London Control:119.770:TCN:T:LON:CTR:-:-:0301:0377:N051.44.35.639:W000.05.11.552::
LTC_SW_CTR:London Control:133.170:TCSW:T:LON:CTR:-:-:0301:0377:N051.12.06.055:W000.38.07.959::
LTC_SE_CTR:London Control:120.520:TCSE:T:LON:CTR:-:-:0301:0377:N051.19.14.860:E000.00.59.623::
LTC_S_CTR:London Control:134.120:TCS:T:LON:CTR:-:-:0301:0377:N051.11.19.493:W000.11.26.423::
MAN_CTR:Scottish Control:118.770:M:5:LON:CTR:-:-:0501:0577:N053.23.30.998:W003.08.03.998::
MAN_E_CTR:Scottish Control:133.800:ME:6:LON:CTR:-:-:0501:0577:N053.28.29.359:W001.00.06.210::
MAN_W_CTR:Scottish Control:128.050:MW:5:LON:CTR:-:-:0501:0577:N053.23.30.998:W003.08.03.998::

LON_M_CTR:London Control:199.998:LM:L:LON:CTR:-:-:
LON-M_CTR:London Control:199.998:LM:L:LON-M:CTR:-:-:
LTC_M_CTR:London Control:199.998:LM:L:LTC:CTR:-:-:
LTC-M_CTR:London Control:199.998:LM:L:LTC-M:CTR:-:-:
MAN_M_CTR:Scottish Control:199.998:LM:L:MAN:CTR:-:-:
MAN-M_CTR:Scottish Control:199.998:LM:L:MAN-M:CTR:-:-:
;ADJACENT SECTORS
EHAA_W_CTR:Amsterdam Radar:125.750:A:C:EHAA:CTR:AMS:RDR:2700:2777
EHAA_E_CTR:Amsterdam Radar:124.870:AE:C:EHAA:CTR:AMS:RDR:2700:2777
EHAA_S_CTR:Amsterdam Radar:123.850:AS:C:EHAA:CTR:AMS:RDR:2700:2777
EHMC_CTR:Dutch Military Radar:128.350:DM:C:EHMC:CTR:DUTCH:MIL::
EHAM_APP:Schiphol Approach:121.200:AMA:C:EHAM:APP:AMS:APP::
EBBU_W_CTR:Brussels Control:131.100:B:C:EBBU:CTR:EBBU:CTR:7100:7177
EBBU_E_CTR:Brussels Control:129.570:BE:C:EBBU:CTR:EBBU:CTR:7100:7177
EBBU_U_CTR:Maastricht Radar:127.220:MB:C:EBBU:CTR:EBBU:CTR::
EDYY_K_CTR:Maastricht Radar:132.200:MK:C:EDYY:CTR:EDYY:CTR::
EDYY_N_CTR:Maastricht Radar:135.970:MN:C:EDYY:CTR:EDYY:CTR::
EDYY_D_CTR:Maastricht Radar:132.070:MD:C:EDYY:CTR:EDYY:CTR::

LFUP_CTR:France Control:130.950:F:C:LFUP:CTR:FRANCE:UPPER::
LFUP_CTR:France Control:130.950:F:C:LFFF:CTR:FRANCE:UPPER::
LFFF_CTR:Paris Control:128.100:P:C:LFFF:CTR:LFFF:CTR:5700:5767
LFFF_W_CTR:Paris Control:128.870:PW:C:LFFF:CTR:LFFF:CTR:5700:5767
LFFF_S_CTR:Paris Control:132.100:PS:C:LFFF:CTR:LFFF:SOUTH:5700:5767
LFFF_U_CTR:Paris Control:124.720:PU:C:LFFF:CTR:LFFF:UPPER:5700:5767
LFFF_U_CTR:Paris Control:124.720:PU:C:LFUP:CTR:LFFF:UPPER:5700:5767
LFFF_U_CTR:Paris Control:127.420:PU:C:LFFF:CTR:LFFF:UPPER:5700:5767
LFFF_U_CTR:Paris Control:127.420:PU:C:LFUP:CTR:LFFF:UPPER:5700:5767
LFRR_CTR:Brest Control:125.500:BR:C:LFRR:CTR:LFRR:CTR:5640:5657
LFUR_CTR:Brest Control:132.120:BRU:C:LFUR:CTR:LFRR:CTR:5640:5657
LFUR_CTR:Brest Control:132.120:BRU:C:LFRR:CTR:LFRR:CTR:5640:5657
LFFM_CTR:France Military Control:128.370:FM:C:LFFM:CTR:FRANCE:MIL::

EISN_CTR:Shannon Control:131.150:SN:I:EISN:CTR:EISN:CTR:6600:6677
EISN_L_CTR:Shannon Control:124.700:SNL:L:EISN:CTR:-:-:6600:6677
EISN_N_CTR:Shannon Control:122.970:SNN:SNN:EISN:CTR:EISN:CTR:6600:6667
EISN_S_CTR:Shannon Control:135.600:SNS:SNS:EISN:CTR:EISN:CTR:6600:6667
EISN_W_CTR:Shannon Control:125.870:SNW:SNW:EISN:CTR:EISN:CTR:6600:6667
EISN_I_CTR:Shannon Information:134.270:SNI:I:EISN:CTR:EISN:CTR:6600:6677
EIDW_N_CTR:Dublin Control:129.170:DN:D:EIDW:CTR:EIDW:CTR::
EIDW_S_CTR:Dublin Control:124.650:DS:D:EIDW:CTR:EIDW:CTR::
EIDW_S_CTR:Dublin Control:126.250:DS:D:EIDW:CTR:EIDW:CTR::
EIDW_S_CTR:Dublin Control:120.050:DS:D:EIDW:CTR:EIDW:CTR::
EIDW_H_CTR:Dublin Control:119.550:DH:D:EIDW:CTR:EIDW:CTR::
EIDW_N_APP:Dublin Control:129.170:DN:D:EIDW:APP:EIDW:CTR::
EIDW_S_APP:Dublin Control:124.650:DS:D:EIDW:APP:EIDW:CTR::
EIDW_S_APP:Dublin Control:126.250:DS:D:EIDW:APP:EIDW:CTR::
EIDW_S_APP:Dublin Control:120.050:DS:D:EIDW:APP:EIDW:CTR::
EIDW_H_CTR:Dublin Control:119.550:DH:D:EIDW:APP:EIDW:CTR::
EIDW_APP:Dublin Approach:121.100:DWA:D:EIDW:APP:EIDW:APP::

BEL_APP:Scottish Control:123.770:STA:B6:BEL:APP:ScTC:Antrim::
BEL_APP:Scottish Control:123.770:STA:B6:EGPX:CTR:ScTC:Antrim::
BEL_APP:Scottish Control:123.770:STA:B6:SCO:CTR:ScTC:Antrim::
BEL_APP:Scottish Control:123.770:STA:B6:BEL:CTR:ScTC:Antrim::
EGPX_CTR:Scottish Control:135.520:S:S:EGPX:CTR:ScAC:::
EGPX_CTR:Scottish Control:135.520:S1:S:SCO:CTR:ScAC:::
EGPX_W_CTR:Scottish Control:132.720:SW:W:EGPX:CTR:ScAC:W::
EGPX_W_CTR:Scottish Control:132.720:SW:W:SCO:CTR:ScAC:W::
EGPX_E_CTR:Scottish Control:134.770:SE:E:EGPX:CTR:ScAC:E::
EGPX_E_CTR:Scottish Control:134.770:SE:E:SCO:CTR:ScAC:E::
SCO_A_CTR:Scottish Control:130.970:ST:0:SCO:CTR:ScTC:All::
SCO_E_CTR:Scottish Control:126.300:STE:2:SCO:CTR:ScTC:E::
SCO_W_CTR:Scottish Control:124.820:STW:1:SCO:CTR:ScTC:W::
SCO_A_CTR:Scottish Control:130.970:ST:0:EGPX:CTR:ScTC:All::
SCO_E_CTR:Scottish Control:126.300:STE:2:EGPX:CTR:ScTC:E::
SCO_W_CTR:Scottish Control:124.820:STW:1:EGPX:CTR:ScTC:W::

EGTT_INFO:London Information:124.600:LI:C:EGTT:CTR:-:-:::N051.28.39.000:W000.27.41.000::
EGTT_INFO:London Information:124.600:LI:C:EGTT:FSS:-:-:::N051.28.39.000:W000.27.41.000::

EGVV_CTR:Swanwick Military:135.150:VV:M:EGVV:CTR:SWAN:MIL:6401:6457
EGVV_L_CTR:Swanwick Military:127.450:VVL:M:EGVV:CTR:SWAN-L:MIL:6401:6457
EGWD_CTR:London Military:135.270:WD:M:EGWD:CTR:LON:MIL:6101:6157
EGQQ_CTR:Scottish Military:134.300:QQ:M:EGQQ:CTR:SCO:MIL:4610:4667

EURW_FSS:Eurocontrol West:135.250:EW:C:EURW:FSS:EURW:FSS:0600:0677
EURW_CTR:Eurocontrol West:135.250:EW:C:EURW:CTR:EURW:CTR:0600:0677
EURN_FSS:Eurocontrol North:133.450:EN:C:EURN:FSS:EURW:FSS:0400:0477
EURN_CTR:Eurocontrol North:133.450:EN:C:EURN:CTR:EURW:CTR:0400:0477
EURI_FSS:Eurocontrol:135.750:EI:C:EURI:FSS:EURI:FSS:0100:0177
EURI_CTR:Eurocontrol:135.750:EI:C:EURI:CTR:EURI:CTR:0100:0177
EURM_FSS:Maastricht Eurocontrol:135.450:EM:C:EURM:FSS:EURM:FSS:0300:0377
EURM_CTR:Maastricht Eurocontrol:135.450:EM:C:EURM:CTR:EURM:CTR:0300:0377