;SW London FIR
;Cardiff CTA arc
;CI Zone/FIR bdy
REGIONNAME Uncontrolled airspace
OCASregion                 N051.51.41.898 W006.24.43.261
                           N051.54.38.477 W005.03.02.776
                           N051.39.45.113 W003.24.34.001
                           N051.33.08.924 W003.32.37.338
                           N051.24.14.580 W003.39.45.744
                           N051.13.07.970 W003.29.09.850
                           N050.22.55.635 W003.37.35.088
                           N050.00.00.361 W003.19.13.752
                           N050.00.00.647 W003.20.01.144
                           N049.48.00.761 W003.10.25.711
                           N049.47.05.730 W003.15.36.071
                           N049.23.51.248 W005.21.47.767
                           N048.50.05.559 W008.00.02.353
                           N051.00.01.238 W008.00.01.159
                           N051.11.05.085 W007.40.04.438
                           N050.56.26.802 W007.18.04.959
                           N051.03.17.196 W007.06.32.886
                           N051.17.41.604 W007.28.04.468
						   
;below POMPI triangle
;between N863 M189 and N859
REGIONNAME Uncontrolled airspace
OCASregion		   		   N049.54.47.000 W000.56.08.000
						   N050.36.59.000 W000.50.10.000
						   N050.37.00.018 W000.39.49.224
						   N050.13.47.000 W000.15.11.000
						   N049.59.59.000 W000.31.55.000
						   N049.59.57.000 W000.31.58.000

;between ORTAC and BIGNO
;CI Zone/Q41
REGIONNAME Uncontrolled airspace
OCASregion                 N050.34.21.352 W003.00.46.199
                           N050.40.00.751 W002.29.59.359
                           N050.40.08.851 W002.16.16.516
                           N050.31.45.744 W002.20.28.891
                           N050.28.42.748 W002.05.20.801
                           N050.26.23.806 W002.06.46.986
                           N050.23.35.800 W001.52.39.381
                           N050.02.25.060 W002.07.06.137
                           N050.00.00.248 W002.09.42.399
                           N050.00.00.283 W002.40.36.425
                           N050.27.22.448 W003.02.01.601

;Boscombe down
;Bristol CTA arc
;Bristol CTA arc
REGIONNAME Uncontrolled airspace
OCASregion                 N051.15.05.311 W002.53.40.748
                           N051.15.40.862 W002.51.23.681
                           N051.16.19.851 W002.33.28.042
                           N051.18.26.690 W002.30.46.843
                           N051.18.47.821 W002.20.09.857
                           N051.22.16.513 W002.19.11.316
                           N051.19.35.721 W001.43.19.465
                           N051.16.15.294 W001.20.58.421
                           N051.01.22.727 W001.27.11.382
                           N050.44.58.436 W002.58.54.889
						   
;GIBSO L620 BRIPO
REGIONNAME Uncontrolled airspace
OCASregion                 N050.44.59.118 W002.58.54.176
						   N050.49.54.426 W002.31.19.742
						   N050.39.49.067 W002.30.54.554
						   N050.34.21.455 W003.00.45.752

;North Wales
REGIONNAME Uncontrolled airspace
OCASregion                 N053.15.01.335 W005.30.04.926
                           N053.23.03.034 W005.10.40.831
                           N053.19.47.912 W003.39.36.003
                           N053.10.02.583 W003.21.10.456
                           N053.05.35.810 W003.23.44.101
                           N053.03.48.180 W003.17.57.813
                           N051.52.41.361 W003.23.17.803
                           N052.00.41.385 W004.28.51.306
                           N052.35.22.475 W005.22.39.889
                           N052.44.18.364 W005.30.01.656
                           N052.57.08.086 W005.30.00.710
                           N052.22.15.549 W004.27.48.971
                           N052.29.37.728 W004.16.42.246
                           N053.10.43.896 W005.30.06.320

;Gloucester
REGIONNAME Uncontrolled airspace
OCASregion                 N052.50.47.345 W002.45.32.014
                           N052.33.10.711 W002.30.26.873
                           N051.42.04.526 W001.35.35.684
                           N051.40.55.023 W001.34.58.012
                           N051.43.12.092 W001.51.00.489
                           N051.53.43.609 W002.30.24.912
                           N051.56.02.817 W002.47.22.898
                           N052.30.25.708 W002.44.23.620
                           N052.50.46.383 W002.45.41.397

;North of BAGSO/RAMOX
REGIONNAME Uncontrolled airspace
OCASregion                 N054.06.34.046 W005.39.09.497
                           N053.53.30.764 W004.45.33.383
                           N053.43.45.784 W004.26.13.365
                           N053.45.43.818 W005.30.06.979
                           N053.55.00.798 W005.30.05.754
                           N053.58.10.477 W005.46.06.852

;Between IOM and DCS
;Isle of Man CTA arc
REGIONNAME Uncontrolled airspace
OCASregion                 N055.10.12.291 W004.45.00.736
                           N055.06.00.729 W004.14.21.824
                           N054.30.23.885 W003.27.01.707
                           N053.41.10.274 W003.19.15.613
                           N053.41.50.519 W003.37.22.230
                           N053.53.49.281 W004.06.21.708
                           N053.54.00.902 W004.06.07.934
                           N053.55.12.044 W004.06.43.901
                           N054.02.51.957 W003.58.08.049
                           N054.09.13.828 W004.13.45.622
                           N054.13.04.841 W004.15.38.440
                           N054.14.19.916 W004.26.13.619
                           N054.32.30.832 W005.10.49.479
                           N054.35.41.683 W005.14.42.384

;West of Newcastle
REGIONNAME Uncontrolled airspace
OCASregion                 N055.20.47.214 W002.56.26.360
                           N055.02.38.755 W002.00.35.090
                           N054.44.00.418 W002.00.03.456
                           N054.15.32.083 W002.08.51.239
                           N054.12.04.670 W002.17.00.000

;North Sea, north of Y70
;Doncaster CTA arc
REGIONNAME Uncontrolled airspace
OCASregion                 N055.00.08.130 W001.16.32.232
                           N054.59.57.777 E004.59.50.962
                           N053.59.58.384 E004.05.05.216
                           N054.34.15.199 E003.43.38.893
                           N053.44.16.829 E002.59.53.667
                           N053.16.09.511 E002.59.51.643
                           N053.20.01.624 E002.30.08.197
                           N053.11.37.074 E002.29.58.968
                           N053.08.25.149 E002.03.58.302
                           N053.22.03.772 E000.04.34.544
                           N053.36.14.583 W000.44.50.293
                           N053.37.39.538 W000.44.05.803
                           N053.41.32.929 W001.04.31.028
                           N053.43.08.281 W001.16.12.375
                           N054.11.48.476 W001.45.33.354
                           N054.50.08.913 W001.33.24.227

;Norwich, south of Y70
;Doncaster CTA arc
REGIONNAME Uncontrolled airspace
OCASregion                 N053.21.10.257 W001.28.58.303
                           N053.20.13.144 W001.18.41.826
                           N053.18.55.422 W001.11.52.043
                           N053.16.42.174 W001.11.40.157
                           N053.15.07.047 W000.56.09.857
                           N053.15.54.741 W000.55.46.387
                           N053.06.19.828 W000.04.26.399
                           N053.12.32.481 W000.01.08.596
                           N052.58.18.908 E002.03.31.293
                           N052.52.07.534 E002.29.57.368
                           N052.40.13.215 E002.29.56.872
                           N052.37.03.253 E002.53.58.299
                           N052.28.17.798 E002.46.39.014
                           N052.28.43.646 E002.34.13.215
                           N052.34.13.365 E001.54.08.178
                           N052.25.10.661 E001.28.14.081
                           N052.26.33.143 W000.37.26.238
                           N052.36.33.856 W000.46.58.198
                           N052.47.24.193 W000.57.44.009
                           N052.50.56.741 W000.57.21.315
                           N052.51.22.766 W000.57.23.636
                           N052.54.28.282 W001.00.12.920
                           N052.59.07.533 W001.09.30.088
                           N053.11.38.674 W001.22.05.881
                           N053.20.04.113 W001.30.41.948

;Scottish FIR east
;Newcastle CTA arc
REGIONNAME Uncontrolled airspace
OCASregion                 N054.59.58.837 W001.16.45.091
                           N055.02.09.463 W001.13.28.705
                           N055.13.39.406 W001.21.36.925
                           N055.11.38.836 W001.31.06.301
                           N055.08.25.737 W001.42.55.721
                           N055.31.06.002 W002.51.59.799
                           N061.17.05.671 W003.52.03.182
                           N061.18.01.282 E007.16.53.008
                           N054.59.58.009 E004.59.46.040