EGWU_APP:Northolt Approach:199.998:WUAM:N:EGWU:APP:-:-:-:-:N051.33.11.000:W000.25.06.000::
EGWU_APP:Northolt Director:199.998:WUDM:N:EGWU:APP:-:-:-:-:N051.33.11.000:W000.25.06.000::
EGWU_TWR:Northolt Tower:199.998:WUTM:T:EGWU:TWR:-:-:-:-:N051.33.11.000:W000.25.06.000::
EGWU_GND:Northolt Ground:199.998:WUGM:G:EGWU:GND:-:-:-:-:N051.33.11.000:W000.25.06.000::