CIRCLE_SECTORLINE:CNTWR:EGCN:2.5
DISPLAY:CNAPP:CNAPP:CNTWR
DISPLAY:CNTWR:CNAPP:CNTWR

SECTORLINE:CNAPP
DISPLAY:ME285:ME285:CNAPP
DISPLAY:CNAPP:ME285:CNAPP
COORD:N53.37.41:W0.44.03
COORD:N053.38.53.937:W000.46.07.659
COORD:N053.40.10.434:W000.49.10.897
COORD:N053.41.06.823:W000.52.33.928
COORD:N053.41.41.366:W000.56.10.518
COORD:N053.41.53.000:W000.59.53.999
COORD:N53.41.49:W1.2.9
COORD:N53.39.41:W1.24.5
COORD:N53.20.12:W1.18.40
COORD:N53.18.58:W1.11.52
COORD:N53.16.41:W1.11.39
COORD:N053.16.35.006:W001.11.28.222
COORD:N053.15.37.809:W001.08.01.980
COORD:N053.15.02.791:W001.04.22.378
COORD:N053.14.51.001:W001.00.36.000
COORD:N053.15.02.791:W000.56.49.622
COORD:N53.15.9:W0.56.10
COORD:N53.37.41:W0.44.03