THAMES_APP:Thames Radar:132.700:THA:Y:THAMES:APP:-:-:7050:7067:N051.30.18.920:E000.03.15.730::
THAMES_APP:Thames Radar:132.700:THA:Y:THA:APP:-:-:7050:7067:N051.30.18.920:E000.03.15.730::
EGLC_APP:City Radar:128.020:LCR:Y:EGLC:APP:-:-:7050:7067:N051.30.18.921:E000.03.15.731::
EGLC_TWR:City Tower:118.070:LCT:Y:EGLC:TWR:-:-:7050:7067:N051.30.18.920:E000.03.15.730::
EGLC_GND:City Ground:121.820:LCG:Y:EGLC:GND:-:-:7050:7067:N051.30.18.920:E000.03.15.730::
EGLC_ATIS:City ATIS:129.450:LCI:Y:EGLC:ATIS:-:-::::::