Thames RMA              	S999.00.00.000 E999.00.00.000 S999.00.00.000 E999.00.00.000
                            N051.30.15.365 E000.03.03.357 N051.35.22.004 E000.03.33.672
                            N051.35.22.004 E000.03.33.672 N051.36.37.187 E000.33.04.238
                            N051.36.37.187 E000.33.04.238 N051.34.37.195 E000.41.38.241
                            N051.34.37.195 E000.41.38.241 N051.26.54.718 E000.49.50.369
                            N051.26.54.718 E000.49.50.369 N051.18.12.256 E000.35.45.718
                            N051.18.12.256 E000.35.45.718 N051.13.53.548 E000.26.47.828
                            N051.13.53.548 E000.26.47.828 N051.18.32.916 E000.01.49.710
                            N051.18.32.916 E000.01.49.710 N051.30.15.365 E000.03.03.357