;Westerlies
;MID
COPX:EGLL:*:D162I:*:*:LLDEP:London TC SW:6000:*:SID
;SAM and CPT
COPX:EGLL:27L:D262M:*:*:LLDEP:London TC SW:6000:*:SID
COPX:EGLL:27R:D262M:*:*:LLDEP:London TC SW:6000:*:SID

;Easterlies
;MID
COPX:EGLL:*:D027S:*:*:LLDEP:London TC SW:6000:*:SID
;SAM
COPX:EGLL:*:D043B:*:*:LLDEP:London TC SW:6000:*:SID
;CPT
COPX:EGLL:09L:CPT:*:*:LLSTH_E:London TC SW:6000:*:CPT
COPX:EGLL:09R:CPT:*:*:LLSTH_E:London TC SW:6000:*:CPT