;Holding Points
"A2" N053.52.09.957 W001.39.49.655 standHold
"B" N053.52.04.560 W001.39.40.513 standHold
"C" N053.52.04.388 W001.39.29.764 standHold
"D1" N053.51.50.409 W001.39.18.237 standHold
"D2" N053.51.59.002 W001.39.17.207 standHold
"D3" N053.52.04.895 W001.39.17.748 standHold
"E1" N053.52.24.661 W001.40.15.094 standHold
"E2" N053.52.23.116 W001.40.08.945 standHold
"F1" N053.52.05.837 W001.39.59.476 standHold
"F3" N053.52.01.134 W001.40.03.320 standHold
"F4" N053.51.59.171 W001.40.01.751 standHold
"G1" N053.51.59.987 W001.40.00.219 standHold
"G2" N053.51.54.534 W001.39.45.453 standHold
"J" N053.51.36.736 W001.39.14.983 standHold
"L1" N053.51.53.724 W001.39.40.553 standHold
"L2" N053.51.52.734 W001.39.42.271 standHold
"L3" N053.51.53.089 W001.39.46.699 standHold
"M1" N053.52.01.631 W001.39.55.480 standHold
"N1" N053.52.01.359 W001.39.33.524 standHold
"N2" N053.52.01.045 W001.39.19.860 standHold
"N3" N053.52.01.179 W001.39.12.210 standHold
"N4" N053.52.04.044 W001.39.09.649 standHold
;Stands
"1" N053.52.10.488 W001.39.42.804 standHold
"3" N053.52.08.292 W001.39.39.564 standHold
"5" N053.52.07.212 W001.39.36.936 standHold
"6" N053.52.07.212 W001.39.35.280 standHold
"7" N053.52.07.212 W001.39.32.796 standHold
"8" N053.52.08.000 W001.39.30.925 standHold
"9" N053.52.08.000 W001.39.28.655 standHold
"10" N053.52.08.000 W001.39.26.315 standHold
"11" N053.52.07.968 W001.39.23.364 standHold
"12" N053.52.07.932 W001.39.20.736 standHold
"13" N053.52.07.896 W001.39.17.892 standHold
"14" N053.52.07.896 W001.39.15.372 standHold
"15" N053.52.07.824 W001.39.12.852 standHold
"16L" N053.52.07.474 W001.39.10.975 standHold
"16R" N053.52.07.824 W001.39.10.296 standHold
"17" N053.52.07.788 W001.39.07.812 standHold
"18L" N053.52.07.767 W001.39.05.702 standHold
"18R" N053.52.07.412 W001.39.05.242 standHold
"19" N053.52.03.090 W001.39.01.230 standHold
"20" N053.52.02.330 W001.39.01.100 standHold
"21" N053.52.01.730 W001.39.01.120 standHold
"22" N053.51.58.992 W001.39.07.019 standHold
"23" N053.51.59.009 W001.39.08.029 standHold
"24" N053.51.59.114 W001.39.09.335 standHold