EGMC Southend SMAA         	S999.00.00.000 E999.00.00.000 S999.00.00.000 E999.00.00.000
                           	N051.32.52.000 E000.19.57.000 N051.46.59.000 E000.36.25.000
                           	N051.46.59.000 E000.36.25.000 N051.50.56.000 E001.08.48.000
                           	N051.50.56.000 E001.08.48.000 N051.42.22.000 E001.11.13.000
                           	N051.42.22.000 E001.11.13.000 N051.24.42.000 E000.57.38.000
                           	N051.24.42.000 E000.57.38.000 N051.32.49.000 E000.44.21.000
                           	N051.32.49.000 E000.44.21.000 N051.29.33.000 E000.31.23.000
                           	N051.29.33.000 E000.31.23.000 N051.32.18.000 E000.28.17.000
                           	N051.32.18.000 E000.28.17.000 N051.32.52.000 E000.19.57.000

                           	N051.31.37.000 E000.18.29.000 N051.32.52.000 E000.19.57.000
                           	N051.32.52.000 E000.19.57.000 N051.32.18.000 E000.28.17.000
                           	N051.32.18.000 E000.28.17.000 N051.29.33.000 E000.31.23.000
                           	N051.29.33.000 E000.31.23.000 N051.32.49.000 E000.44.21.000
                           	N051.32.49.000 E000.44.21.000 N051.24.42.000 E000.57.38.000
                           	N051.24.42.000 E000.57.38.000 N051.19.09.000 E000.53.24.000
                           	N051.19.09.000 E000.53.24.000 N051.18.27.000 E000.39.02.000
                           	N051.18.27.000 E000.39.02.000 N051.18.32.906 E000.39.05.767
                           	N051.18.32.906 E000.39.05.767 N051.18.58.853 E000.39.11.234
                           	N051.18.58.853 E000.39.11.234 N051.19.25.000 E000.39.13.061
                           	N051.19.25.000 E000.39.13.061 N051.19.51.147 E000.39.11.234
                           	N051.19.51.147 E000.39.11.234 N051.20.17.094 E000.39.05.767
                           	N051.20.17.094 E000.39.05.767 N051.20.42.646 E000.38.56.703
                           	N051.20.42.646 E000.38.56.703 N051.21.07.606 E000.38.44.109
                           	N051.21.07.606 E000.38.44.109 N051.21.31.785 E000.38.28.083
                           	N051.21.31.785 E000.38.28.083 N051.21.55.000 E000.38.08.745
                           	N051.21.55.000 E000.38.08.745 N051.22.17.073 E000.37.46.243
                           	N051.22.17.073 E000.37.46.243 N051.22.37.836 E000.37.20.748
                           	N051.22.37.836 E000.37.20.748 N051.22.57.132 E000.36.52.454
                           	N051.22.57.132 E000.36.52.454 N051.23.14.813 E000.36.21.577
                           	N051.23.14.813 E000.36.21.577 N051.23.30.746 E000.35.48.351
                           	N051.23.30.746 E000.35.48.351 N051.23.44.808 E000.35.13.030
                           	N051.23.44.808 E000.35.13.030 N051.23.56.892 E000.34.35.882
                           	N051.23.56.892 E000.34.35.882 N051.24.06.908 E000.33.57.190
                           	N051.24.06.908 E000.33.57.190 N051.24.14.778 E000.33.17.249
                           	N051.24.14.778 E000.33.17.249 N051.24.20.442 E000.32.36.362
                           	N051.24.20.442 E000.32.36.362 N051.24.23.858 E000.31.54.840
                           	N051.24.23.858 E000.31.54.840 N051.24.25.000 E000.31.13.000
                           	N051.24.25.000 E000.31.13.000 N051.24.23.858 E000.30.31.160
                           	N051.24.23.858 E000.30.31.160 N051.24.20.442 E000.29.49.638
                           	N051.24.20.442 E000.29.49.638 N051.24.14.778 E000.29.08.751
                           	N051.24.14.778 E000.29.08.751 N051.24.07.000 E000.28.31.000
                           	N051.24.07.000 E000.28.31.000 N051.31.37.000 E000.18.29.000

                           	N051.24.07.000 E000.28.31.000 N051.24.14.778 E000.29.08.751
                           	N051.24.14.778 E000.29.08.751 N051.24.20.442 E000.29.49.638
                           	N051.24.20.442 E000.29.49.638 N051.24.23.858 E000.30.31.160
                           	N051.24.23.858 E000.30.31.160 N051.24.25.000 E000.31.13.000
                           	N051.24.25.000 E000.31.13.000 N051.24.23.858 E000.31.54.840
                           	N051.24.23.858 E000.31.54.840 N051.24.20.442 E000.32.36.362
                           	N051.24.20.442 E000.32.36.362 N051.24.14.778 E000.33.17.249
                           	N051.24.14.778 E000.33.17.249 N051.24.06.908 E000.33.57.190
                           	N051.24.06.908 E000.33.57.190 N051.23.56.892 E000.34.35.882
                           	N051.23.56.892 E000.34.35.882 N051.23.44.808 E000.35.13.030
                           	N051.23.44.808 E000.35.13.030 N051.23.30.746 E000.35.48.351
                           	N051.23.30.746 E000.35.48.351 N051.23.14.813 E000.36.21.577
                           	N051.23.14.813 E000.36.21.577 N051.22.57.132 E000.36.52.454
                           	N051.22.57.132 E000.36.52.454 N051.22.37.836 E000.37.20.748
                           	N051.22.37.836 E000.37.20.748 N051.22.17.073 E000.37.46.243
                           	N051.22.17.073 E000.37.46.243 N051.21.55.000 E000.38.08.745
                           	N051.21.55.000 E000.38.08.745 N051.21.31.785 E000.38.28.083
                           	N051.21.31.785 E000.38.28.083 N051.21.07.606 E000.38.44.109
                           	N051.21.07.606 E000.38.44.109 N051.20.42.646 E000.38.56.703
                           	N051.20.42.646 E000.38.56.703 N051.20.17.094 E000.39.05.767
                           	N051.20.17.094 E000.39.05.767 N051.19.51.147 E000.39.11.234
                           	N051.19.51.147 E000.39.11.234 N051.19.25.000 E000.39.13.061
                           	N051.19.25.000 E000.39.13.061 N051.18.58.853 E000.39.11.234
                           	N051.18.58.853 E000.39.11.234 N051.18.32.906 E000.39.05.767
                           	N051.18.32.906 E000.39.05.767 N051.18.27.000 E000.39.02.000
                           	N051.18.27.000 E000.39.02.000 N051.18.19.000 E000.36.15.000
                           	N051.18.19.000 E000.36.15.000 N051.24.07.000 E000.28.31.000

;intermediate approach area
                           	N051.30.30.000 E000.26.39.000 N051.34.11.000 E000.38.13.000
                           	N051.34.11.000 E000.38.13.000 N051.32.09.000 E000.40.32.000
                           	N051.32.09.000 E000.40.32.000 N051.26.27.000 E000.31.16.000
                           	N051.26.27.000 E000.31.16.000 N051.30.30.000 E000.26.39.000