;Black_Background
REGIONNAME Gatwick
blackBackground N051.09.32.252 W000.11.01.681
N051.09.23.645 W000.11.55.664
N051.09.02.413 W000.11.48.792
N051.08.52.391 W000.12.54.154
N051.08.39.003 W000.12.48.639
N051.08.56.009 W000.10.40.921
N051.08.43.329 W000.10.36.646
N051.08.48.358 W000.09.49.465
N051.08.56.330 W000.09.40.711
N051.09.33.378 W000.09.38.393
N051.09.41.031 W000.10.10.749
N051.09.51.575 W000.10.36.811
N051.09.47.889 W000.11.05.728

;Blue_West_of_Y
REGIONNAME Gatwick
blueBackground N051.08.43.439 W000.12.27.326
N051.08.41.163 W000.12.44.126
N051.08.42.463 W000.12.44.544
N051.08.42.579 W000.12.45.035
N051.08.42.768 W000.12.45.292
N051.08.43.127 W000.12.46.089
N051.08.43.654 W000.12.46.848
N051.08.43.993 W000.12.47.192
N051.08.44.421 W000.12.47.631
N051.08.44.986 W000.12.47.958
N051.08.45.448 W000.12.48.152
N051.08.45.997 W000.12.48.311
N051.08.46.505 W000.12.48.615
N051.08.46.935 W000.12.48.889
N051.08.47.267 W000.12.49.129
N051.08.47.527 W000.12.49.416
N051.08.47.627 W000.12.49.574
N051.08.47.710 W000.12.49.781
N051.08.47.754 W000.12.50.028
N051.08.47.768 W000.12.50.181
N051.08.47.727 W000.12.50.409
N051.08.51.355 W000.12.51.671
N051.08.52.283 W000.12.45.016
N051.08.52.507 W000.12.43.671
N051.08.52.875 W000.12.42.346
N051.08.53.047 W000.12.41.813
N051.08.54.873 W000.12.28.284
N051.08.56.195 W000.12.18.774
N051.08.58.298 W000.12.03.436
N051.09.00.311 W000.11.49.131
N051.09.00.424 W000.11.48.752
N051.09.00.714 W000.11.47.225
N051.09.00.999 W000.11.46.219
N051.09.01.350 W000.11.45.633
N051.09.01.757 W000.11.45.403
N051.09.02.462 W000.11.45.328
N051.09.03.171 W000.11.45.470
N051.09.07.254 W000.11.46.795
N051.09.18.044 W000.11.50.603
N051.09.20.094 W000.11.51.272
N051.09.20.232 W000.11.50.050
N051.09.19.683 W000.11.49.829
N051.09.19.928 W000.11.47.575
N051.09.20.498 W000.11.47.784
N051.09.20.644 W000.11.46.614
N051.09.20.135 W000.11.46.327
N051.09.20.436 W000.11.44.137
N051.09.19.869 W000.11.42.776
N051.09.14.902 W000.11.40.936
N051.09.08.300 W000.11.38.702
N051.09.04.415 W000.11.37.356
N051.09.04.205 W000.11.37.150
N051.09.04.081 W000.11.36.910
N051.09.04.030 W000.11.36.612
N051.09.04.038 W000.11.36.270
N051.09.04.063 W000.11.35.893
N051.09.04.057 W000.11.35.650
N051.09.04.807 W000.11.35.757
N051.09.05.106 W000.11.35.852
N051.09.05.414 W000.11.35.929
N051.09.05.859 W000.11.36.083
N051.09.06.995 W000.11.36.460
N051.09.14.026 W000.11.38.938
N051.09.14.059 W000.11.38.602
N051.09.14.243 W000.11.38.631
N051.09.14.267 W000.11.38.388
N051.09.14.495 W000.11.38.346
N051.09.14.528 W000.11.37.737
N051.09.14.335 W000.11.37.601
N051.09.14.047 W000.11.37.407
N051.09.13.898 W000.11.37.234
N051.09.13.719 W000.11.37.013
N051.09.13.597 W000.11.36.745
N051.09.13.552 W000.11.36.518
N051.09.13.513 W000.11.36.187
N051.09.13.519 W000.11.35.580
N051.09.15.925 W000.11.36.336
N051.09.16.714 W000.11.30.431
N051.09.15.428 W000.11.29.952
N051.09.15.582 W000.11.28.692
N051.09.15.186 W000.11.28.541
N051.09.15.543 W000.11.26.041
N051.09.12.795 W000.11.25.087
N051.09.12.617 W000.11.26.391
N051.09.12.762 W000.11.26.465
N051.09.12.416 W000.11.28.997
N051.09.11.453 W000.11.28.828
N051.09.10.672 W000.11.34.556
N051.09.12.514 W000.11.35.222
N051.09.12.257 W000.11.36.010
N051.09.11.965 W000.11.36.448
N051.09.11.435 W000.11.36.486
N051.09.10.736 W000.11.36.440
N051.09.09.621 W000.11.36.181
N051.09.08.671 W000.11.35.816
N051.09.06.332 W000.11.35.011
N051.09.04.981 W000.11.34.407
N051.09.04.140 W000.11.33.909
N051.09.03.571 W000.11.33.492
N051.09.03.196 W000.11.33.108
N051.09.02.941 W000.11.32.715
N051.09.02.916 W000.11.30.957
N051.09.03.140 W000.11.28.581
N051.09.04.143 W000.11.21.230
N051.09.04.336 W000.11.19.721
N051.09.04.818 W000.11.17.155
N051.09.05.036 W000.11.15.981
N051.09.05.282 W000.11.15.141
N051.09.05.665 W000.11.14.462
N051.09.06.013 W000.11.14.263
N051.09.06.475 W000.11.14.396
N051.09.05.669 W000.11.20.487
N051.09.26.606 W000.11.28.272
N051.09.30.622 W000.10.58.325
N051.09.37.797 W000.11.00.712
N051.09.44.703 W000.11.03.035
N051.09.46.102 W000.11.02.431
N051.09.47.050 W000.11.01.023
N051.09.47.499 W000.10.58.932
N051.09.48.727 W000.10.50.220
N051.09.48.691 W000.10.49.210
N051.09.48.544 W000.10.48.478
N051.09.48.522 W000.10.48.223
N051.11.16.889 W000.11.21.526
N051.10.27.451 W000.17.03.286
N051.06.20.622 W000.15.32.865
N051.07.12.418 W000.09.55.113
N051.08.54.162 W000.10.36.591
N051.08.58.281 W000.10.38.202
N051.08.50.546 W000.11.33.530
N051.08.44.114 W000.12.20.196
N051.08.43.132 W000.12.27.398

;Blue_East_of_Y
REGIONNAME Gatwick
blueBackground N051.07.50.128 W000.05.23.195
N051.11.52.829 W000.07.01.962
N051.11.16.715 W000.11.22.804
N051.09.49.059 W000.10.49.120
N051.09.48.751 W000.10.48.396
N051.09.48.282 W000.10.48.212
N051.09.40.719 W000.10.45.090
N051.09.41.859 W000.10.35.561
N051.09.37.089 W000.10.34.020
N051.09.35.840 W000.10.43.540
N051.09.31.209 W000.10.42.297
N051.09.32.264 W000.10.34.145
N051.09.33.893 W000.10.22.104
N051.09.34.046 W000.10.21.934
N051.09.35.018 W000.10.20.595
N051.09.35.803 W000.10.20.399
N051.09.36.302 W000.10.19.861
N051.09.36.724 W000.10.19.502
N051.09.37.261 W000.10.18.466
N051.09.37.663 W000.10.17.357
N051.09.38.128 W000.10.15.496
N051.09.38.272 W000.10.14.088
N051.09.38.318 W000.10.12.866
N051.09.38.323 W000.10.12.004
N051.09.38.293 W000.10.10.641
N051.09.38.123 W000.10.09.297
N051.09.35.560 W000.10.07.041
N051.09.35.533 W000.10.05.643
N051.09.35.221 W000.10.03.222
N051.09.34.664 W000.10.00.888
N051.09.34.345 W000.10.00.016
N051.09.33.453 W000.09.59.071
N051.09.32.630 W000.09.58.414
N051.09.29.754 W000.09.56.351
N051.09.29.273 W000.09.57.690
N051.09.29.023 W000.09.58.764
N051.09.29.161 W000.10.00.752
N051.09.28.843 W000.10.00.760
N051.09.27.467 W000.09.54.042
N051.09.27.841 W000.09.53.538
N051.09.27.844 W000.09.53.093
N051.09.27.736 W000.09.52.076
N051.09.27.617 W000.09.51.452
N051.09.27.475 W000.09.51.053
N051.09.27.045 W000.09.50.381
N051.09.27.256 W000.09.50.027
N051.09.27.715 W000.09.46.740
N051.09.25.916 W000.09.46.055
N051.09.26.103 W000.09.44.479
N051.09.24.170 W000.09.43.620
N051.09.24.374 W000.09.42.168
N051.09.20.786 W000.09.40.820
N051.09.18.983 W000.09.40.418
N051.09.18.516 W000.09.43.504
N051.09.15.355 W000.09.43.526
N051.09.11.428 W000.09.43.636
N051.09.09.313 W000.09.44.222
N051.09.09.380 W000.09.45.106
N051.09.09.488 W000.09.45.341
N051.09.09.688 W000.09.47.754
N051.09.09.948 W000.09.48.239
N051.09.09.988 W000.09.48.630
N051.09.10.207 W000.09.50.818
N051.09.10.148 W000.09.51.417
N051.09.09.875 W000.09.51.880
N051.09.09.423 W000.09.52.009
N051.08.59.541 W000.09.48.775
N051.08.57.494 W000.09.45.911
N051.08.57.093 W000.09.45.778
N051.08.57.126 W000.09.44.652
N051.08.55.954 W000.09.45.068
N051.08.54.408 W000.09.45.751
N051.08.53.004 W000.09.46.715
N051.08.51.991 W000.09.47.642
N051.08.50.994 W000.09.48.720
N051.08.51.485 W000.09.49.517
N051.08.51.406 W000.09.49.681
N051.08.51.469 W000.09.49.885
N051.08.50.498 W000.09.51.542
N051.08.50.088 W000.09.51.018
N051.08.49.994 W000.09.51.089
N051.08.49.726 W000.09.50.683
N051.08.49.021 W000.09.52.087
N051.08.48.371 W000.09.54.103
N051.08.49.039 W000.09.54.276
N051.08.49.493 W000.09.52.820
N051.08.49.784 W000.09.52.907
N051.08.49.882 W000.09.53.322
N051.08.50.371 W000.09.53.898
N051.08.49.837 W000.09.57.999
N051.08.49.670 W000.09.58.162
N051.08.49.552 W000.09.58.485
N051.08.49.476 W000.09.59.185
N051.08.49.044 W000.10.01.086
N051.08.48.917 W000.10.03.434
N051.08.49.187 W000.10.03.509
N051.08.50.767 W000.10.04.143
N051.08.50.672 W000.10.05.068
N051.08.50.043 W000.10.11.453
N051.08.49.815 W000.10.11.894
N051.08.49.589 W000.10.12.158
N051.08.49.357 W000.10.12.203
N051.08.47.073 W000.10.11.797
N051.08.46.992 W000.10.12.364
N051.08.46.977 W000.10.13.157
N051.08.47.006 W000.10.13.537
N051.08.46.655 W000.10.17.503
N051.08.46.478 W000.10.17.677
N051.08.46.731 W000.10.18.508
N051.08.46.988 W000.10.18.865
N051.08.46.663 W000.10.25.449
N051.08.48.218 W000.10.25.588
N051.08.48.097 W000.10.29.862
N051.08.51.504 W000.10.30.274
N051.08.51.743 W000.10.28.392
N051.08.51.900 W000.10.28.368
N051.08.52.073 W000.10.28.473
N051.08.52.232 W000.10.28.663
N051.08.52.277 W000.10.29.080
N051.08.52.368 W000.10.32.319
N051.08.52.394 W000.10.32.967
N051.08.52.574 W000.10.33.835
N051.08.52.782 W000.10.34.533
N051.08.53.013 W000.10.35.210
N051.08.53.451 W000.10.35.791
N051.08.54.299 W000.10.36.659
N051.08.54.265 W000.10.36.977
N051.07.11.469 W000.10.02.087

;Between_J_and_H
REGIONNAME Gatwick
smrGrass N051.08.45.138 W000.12.33.621
N051.08.45.904 W000.12.34.537
N051.08.46.331 W000.12.34.909
N051.08.46.905 W000.12.35.186
N051.08.47.659 W000.12.35.719
N051.08.48.391 W000.12.36.251
N051.08.48.854 W000.12.36.542
N051.08.49.009 W000.12.36.771
N051.08.47.698 W000.12.46.589
N051.08.47.186 W000.12.46.822
N051.08.46.623 W000.12.46.779
N051.08.46.195 W000.12.46.846
N051.08.45.694 W000.12.46.606
N051.08.45.056 W000.12.46.316
N051.08.44.527 W000.12.45.870
N051.08.44.122 W000.12.45.386
N051.08.43.832 W000.12.44.880
N051.08.43.637 W000.12.44.383

;Between_H_and_G
REGIONNAME Gatwick
smrGrass N051.08.49.070 W000.12.34.113
N051.08.48.124 W000.12.34.079
N051.08.47.426 W000.12.33.857
N051.08.46.748 W000.12.33.514
N051.08.46.409 W000.12.33.215
N051.08.46.116 W000.12.32.898
N051.08.45.755 W000.12.32.298
N051.08.45.402 W000.12.31.458
N051.08.46.166 W000.12.26.013
N051.08.46.736 W000.12.25.843
N051.08.48.334 W000.12.26.017
N051.08.48.386 W000.12.26.207
N051.08.48.498 W000.12.26.442
N051.08.48.610 W000.12.26.849
N051.08.48.732 W000.12.27.283
N051.08.48.888 W000.12.27.518
N051.08.49.125 W000.12.27.699
N051.08.49.400 W000.12.27.745
N051.08.49.611 W000.12.27.677
N051.08.49.840 W000.12.27.506
N051.08.50.071 W000.12.27.422
N051.08.50.261 W000.12.27.585
N051.08.49.387 W000.12.33.938
N051.08.49.273 W000.12.34.015

;Between_08L_and_J5
REGIONNAME Gatwick
smrGrass N051.08.52.565 W000.12.25.503
N051.08.53.130 W000.12.24.972
N051.08.53.507 W000.12.24.606
N051.08.53.682 W000.12.24.555
N051.08.53.911 W000.12.24.798
N051.08.54.026 W000.12.25.136
N051.08.54.122 W000.12.25.511
N051.08.54.149 W000.12.26.385
N051.08.54.081 W000.12.27.423
N051.08.53.963 W000.12.28.945
N051.08.53.777 W000.12.30.444
N051.08.53.583 W000.12.31.985
N051.08.53.129 W000.12.35.227
N051.08.52.843 W000.12.37.047
N051.08.52.592 W000.12.38.629
N051.08.52.337 W000.12.39.758
N051.08.52.103 W000.12.40.494
N051.08.51.932 W000.12.40.930
N051.08.51.745 W000.12.41.289
N051.08.51.524 W000.12.41.428
N051.08.51.320 W000.12.41.465
N051.08.51.086 W000.12.41.439
N051.08.50.845 W000.12.41.303
N051.08.50.659 W000.12.41.176
N051.08.50.537 W000.12.40.999
N051.08.50.453 W000.12.40.842

;Between_08L_andJ6
REGIONNAME Gatwick
smrGrass N051.08.59.866 W000.11.34.929
N051.09.00.052 W000.11.34.882
N051.09.00.110 W000.11.34.665
N051.09.00.411 W000.11.34.758
N051.09.00.694 W000.11.35.032
N051.09.00.886 W000.11.35.415
N051.09.00.893 W000.11.36.139
N051.09.00.671 W000.11.37.483
N051.09.00.594 W000.11.37.492
N051.09.00.517 W000.11.38.986
N051.09.00.306 W000.11.40.955
N051.08.59.799 W000.11.44.537
N051.08.59.525 W000.11.45.966
N051.08.58.244 W000.11.55.015
N051.08.58.011 W000.11.57.842
N051.08.57.627 W000.12.00.189
N051.08.57.288 W000.12.01.761
N051.08.56.280 W000.12.09.617
N051.08.56.015 W000.12.11.613
N051.08.55.631 W000.12.14.678
N051.08.55.037 W000.12.18.777
N051.08.54.418 W000.12.21.023
N051.08.54.086 W000.12.21.587
N051.08.53.846 W000.12.21.677
N051.08.53.550 W000.12.21.280
N051.08.53.303 W000.12.20.521
N051.08.59.504 W000.11.35.377
N051.08.59.668 W000.11.35.056

;Between_U_and_T
REGIONNAME Gatwick
smrGrass N051.09.02.041 W000.11.43.082
N051.09.02.238 W000.11.41.523
N051.09.02.012 W000.11.41.016
N051.09.01.917 W000.11.40.599
N051.09.01.839 W000.11.39.848
N051.09.01.838 W000.11.39.078
N051.09.01.911 W000.11.38.625
N051.09.01.887 W000.11.38.444
N051.09.01.912 W000.11.38.285
N051.09.01.977 W000.11.37.886
N051.09.02.436 W000.11.36.366
N051.09.02.827 W000.11.35.719
N051.09.03.208 W000.11.35.604
N051.09.03.738 W000.11.35.627
N051.09.03.657 W000.11.36.923
N051.09.03.495 W000.11.37.120
N051.09.02.547 W000.11.43.474

;Between_08L_and_S
REGIONNAME Gatwick
smrGrass N051.09.05.827 W000.10.57.965
N051.09.05.897 W000.10.58.706
N051.09.05.861 W000.10.59.862
N051.09.05.627 W000.11.02.088
N051.09.04.841 W000.11.07.903
N051.09.04.468 W000.11.10.080
N051.09.03.883 W000.11.14.281
N051.09.03.293 W000.11.18.316
N051.09.02.986 W000.11.21.373
N051.09.02.822 W000.11.22.640
N051.09.02.475 W000.11.25.076
N051.09.02.197 W000.11.27.512
N051.09.01.860 W000.11.28.985
N051.09.01.927 W000.11.29.206
N051.09.01.663 W000.11.31.090
N051.09.01.566 W000.11.31.414
N051.09.01.392 W000.11.31.769
N051.09.01.151 W000.11.32.130
N051.09.01.028 W000.11.32.278
N051.09.00.889 W000.11.32.333
N051.09.00.786 W000.11.32.368
N051.09.00.679 W000.11.32.400
N051.09.00.573 W000.11.32.388
N051.09.00.448 W000.11.32.327
N051.09.00.460 W000.11.32.138
N051.09.00.325 W000.11.32.047
N051.09.00.226 W000.11.31.994
N051.09.00.152 W000.11.31.867
N051.09.00.092 W000.11.31.722
N051.09.00.032 W000.11.31.553
N051.08.59.995 W000.11.31.414
N051.09.00.593 W000.11.27.238
N051.09.01.630 W000.11.19.717
N051.09.03.975 W000.11.02.789
N051.09.04.138 W000.11.01.419
N051.09.04.247 W000.11.01.168

;Between_G_and_08R
REGIONNAME Gatwick
smrGrass N051.08.47.792 W000.12.23.834
N051.08.47.233 W000.12.23.679
N051.08.46.801 W000.12.23.495
N051.08.47.321 W000.12.19.408
N051.08.47.511 W000.12.19.376
N051.08.48.406 W000.12.23.899

;Between_GR_and_FR
REGIONNAME Gatwick
smrGrass N051.08.49.221 W000.12.23.527
N051.08.49.082 W000.12.22.705
N051.08.49.006 W000.12.22.821
N051.08.48.402 W000.12.19.931
N051.08.47.894 W000.12.15.990
N051.08.47.897 W000.12.15.709
N051.08.47.935 W000.12.15.344
N051.08.49.356 W000.12.04.750
N051.08.49.875 W000.12.07.147
N051.08.50.092 W000.12.08.435
N051.08.51.511 W000.12.18.814
N051.08.51.046 W000.12.22.132
N051.08.49.293 W000.12.23.517

;Between_FR_and_E
REGIONNAME Gatwick
smrGrass N051.08.52.047 W000.12.13.472
N051.08.51.913 W000.12.13.387
N051.08.51.762 W000.12.13.179
N051.08.51.535 W000.12.12.850
N051.08.51.454 W000.12.12.453
N051.08.51.075 W000.12.09.767
N051.08.50.619 W000.12.06.622
N051.08.50.157 W000.11.58.908
N051.08.50.454 W000.11.56.776
N051.08.51.558 W000.11.48.951
N051.08.52.219 W000.11.44.016
N051.08.53.459 W000.11.35.055
N051.08.53.823 W000.11.36.706
N051.08.54.192 W000.11.38.460
N051.08.54.592 W000.11.40.603
N051.08.54.402 W000.11.40.690
N051.08.54.556 W000.11.41.330
N051.08.54.718 W000.11.41.685
N051.08.54.974 W000.11.42.149
N051.08.55.526 W000.11.42.806
N051.08.55.878 W000.11.43.030
N051.08.56.399 W000.11.43.120
N051.08.55.322 W000.11.51.089
N051.08.53.517 W000.12.03.934
N051.08.53.180 W000.12.06.435
N051.08.52.679 W000.12.10.297
N051.08.52.263 W000.12.13.317
N051.08.52.201 W000.12.13.515

;Between_E_and_D
REGIONNAME Gatwick
smrGrass N051.08.57.073 W000.11.08.967
N051.09.02.663 W000.10.57.982
N051.08.56.735 W000.11.41.044
N051.08.56.226 W000.11.41.038
N051.08.55.845 W000.11.40.771
N051.08.55.454 W000.11.40.047
N051.08.55.031 W000.11.39.064
N051.08.53.821 W000.11.32.672

;Between_D_and_C
REGIONNAME Gatwick
smrGrass N051.09.00.299 W000.10.45.725
N051.09.01.064 W000.10.43.827
N051.09.02.459 W000.10.40.900
N051.09.02.928 W000.10.40.432
N051.09.03.436 W000.10.40.178
N051.09.04.014 W000.10.40.144
N051.09.04.392 W000.10.40.458
N051.09.04.795 W000.10.40.830
N051.09.04.921 W000.10.41.121
N051.09.03.031 W000.10.55.167
N051.08.57.376 W000.11.06.417

;26R_Numbers_1
REGIONNAME Gatwick
smrGrass N051.09.05.256 W000.10.52.867
N051.09.05.248 W000.10.52.636
N051.09.05.331 W000.10.52.236
N051.09.05.464 W000.10.52.021
N051.09.05.663 W000.10.51.855
N051.09.05.832 W000.10.51.793
N051.09.05.988 W000.10.51.842
N051.09.06.207 W000.10.51.966
N051.09.06.309 W000.10.52.169
N051.09.06.394 W000.10.52.367
N051.09.06.420 W000.10.52.603
N051.09.06.422 W000.10.52.889
N051.09.06.350 W000.10.53.181
N051.09.06.237 W000.10.53.373
N051.09.06.113 W000.10.53.505
N051.09.05.920 W000.10.53.616
N051.09.05.723 W000.10.53.611
N051.09.05.491 W000.10.53.452
N051.09.05.390 W000.10.53.250

;26R_Numbers_2
REGIONNAME Gatwick
smrGrass N051.09.04.836 W000.10.56.555
N051.09.04.957 W000.10.56.407
N051.09.05.144 W000.10.56.327
N051.09.05.344 W000.10.56.393
N051.09.05.531 W000.10.56.572
N051.09.04.575 W000.10.58.489

;J_C_Island
REGIONNAME Gatwick
smrGrass N051.09.06.270 W000.10.45.970
N051.09.06.897 W000.10.41.396
N051.09.07.109 W000.10.41.248
N051.09.07.324 W000.10.41.157
N051.09.07.489 W000.10.41.270
N051.09.07.788 W000.10.41.606
N051.09.07.872 W000.10.41.933
N051.09.07.953 W000.10.42.451
N051.09.07.990 W000.10.42.856
N051.09.08.019 W000.10.43.098
N051.09.07.963 W000.10.44.286
N051.09.07.873 W000.10.45.200
N051.09.07.807 W000.10.45.666
N051.09.07.768 W000.10.45.992
N051.09.07.696 W000.10.46.351
N051.09.07.539 W000.10.47.109
N051.09.07.344 W000.10.47.777
N051.09.07.209 W000.10.48.112
N051.09.07.121 W000.10.48.374
N051.09.06.978 W000.10.48.615
N051.09.06.859 W000.10.48.821
N051.09.06.729 W000.10.48.963
N051.09.06.578 W000.10.49.052
N051.09.06.363 W000.10.49.058
N051.09.06.182 W000.10.48.947
N051.09.06.040 W000.10.48.748
N051.09.05.983 W000.10.48.611
N051.09.05.929 W000.10.48.374

;AN_J_Island
REGIONNAME Gatwick
smrGrass N051.09.07.367 W000.10.34.068
N051.09.07.513 W000.10.32.769
N051.09.07.844 W000.10.30.477
N051.09.08.080 W000.10.29.162
N051.09.08.274 W000.10.28.082
N051.09.08.406 W000.10.27.447
N051.09.08.688 W000.10.26.562
N051.09.08.989 W000.10.25.996
N051.09.09.142 W000.10.25.735
N051.09.09.412 W000.10.25.586
N051.09.09.588 W000.10.25.605
N051.09.09.792 W000.10.25.735
N051.09.09.933 W000.10.26.000
N051.09.10.046 W000.10.26.529
N051.09.10.151 W000.10.27.171
N051.09.10.144 W000.10.28.283
N051.09.10.044 W000.10.29.553
N051.09.10.017 W000.10.30.307
N051.09.09.930 W000.10.30.925
N051.09.09.591 W000.10.33.344
N051.09.09.489 W000.10.34.069
N051.09.09.315 W000.10.34.922
N051.09.08.948 W000.10.36.784
N051.09.07.221 W000.10.36.424
N051.09.07.249 W000.10.35.474

;Between_26L_and_AN
REGIONNAME Gatwick
smrGrass N051.09.02.841 W000.10.24.961
N051.09.02.958 W000.10.24.175
N051.09.03.933 W000.10.21.529
N051.09.04.258 W000.10.20.981
N051.09.04.440 W000.10.20.764
N051.09.04.628 W000.10.20.698
N051.09.05.130 W000.10.20.714
N051.09.05.310 W000.10.20.779
N051.09.05.377 W000.10.20.877
N051.09.05.680 W000.10.21.033
N051.09.06.292 W000.10.21.431
N051.09.06.604 W000.10.21.796
N051.09.06.637 W000.10.21.699
N051.09.07.285 W000.10.22.798
N051.09.07.474 W000.10.23.103
N051.09.07.530 W000.10.23.340
N051.09.07.575 W000.10.23.588
N051.09.07.587 W000.10.23.931
N051.09.07.603 W000.10.24.973
N051.09.07.637 W000.10.25.323
N051.09.07.540 W000.10.26.799
N051.09.06.929 W000.10.31.291
N051.09.06.558 W000.10.33.859
N051.09.06.104 W000.10.36.198
N051.09.03.693 W000.10.35.831
N051.09.03.263 W000.10.36.055
N051.09.03.074 W000.10.36.319
N051.09.02.984 W000.10.36.634
N051.09.02.890 W000.10.37.239
N051.09.02.837 W000.10.37.610
N051.09.02.788 W000.10.37.828
N051.09.02.571 W000.10.38.103
N051.09.02.435 W000.10.38.257
N051.09.01.837 W000.10.38.261
N051.09.01.325 W000.10.38.078
N051.09.01.729 W000.10.34.786
N051.09.01.527 W000.10.34.736

;Between_26L_and_AS
REGIONNAME Gatwick
smrGrass N051.09.05.530 W000.10.05.788
N051.09.05.737 W000.10.05.585
N051.09.06.007 W000.10.05.529
N051.09.06.309 W000.10.05.553
N051.09.06.641 W000.10.05.729
N051.09.06.878 W000.10.06.048
N051.09.07.079 W000.10.06.427
N051.09.07.232 W000.10.07.044
N051.09.07.377 W000.10.08.016
N051.09.07.223 W000.10.08.062
N051.09.07.074 W000.10.09.932
N051.09.07.138 W000.10.09.962
N051.09.06.963 W000.10.11.361
N051.09.07.030 W000.10.11.467
N051.09.06.959 W000.10.12.439
N051.09.06.689 W000.10.14.369
N051.09.06.325 W000.10.16.727
N051.09.04.289 W000.10.16.685
N051.09.04.309 W000.10.16.427
N051.09.04.086 W000.10.16.303

;Between_A_and_M
REGIONNAME Gatwick
smrGrass N051.09.06.053 W000.10.01.801
N051.09.06.270 W000.10.00.170
N051.09.06.341 W000.09.59.918
N051.09.06.633 W000.09.59.843
N051.09.06.883 W000.09.59.834
N051.09.07.087 W000.09.59.865
N051.09.07.859 W000.09.59.936
N051.09.08.571 W000.10.00.186
N051.09.09.071 W000.10.00.468
N051.09.09.505 W000.10.00.732
N051.09.10.011 W000.10.01.122
N051.09.10.410 W000.10.01.580
N051.09.10.545 W000.10.01.879
N051.09.10.562 W000.10.02.484
N051.09.10.467 W000.10.02.812
N051.09.10.333 W000.10.03.021
N051.09.10.163 W000.10.03.112
N051.09.09.909 W000.10.03.163
N051.09.09.649 W000.10.03.191
N051.09.08.280 W000.10.02.888
N051.09.06.631 W000.10.02.434
N051.09.06.580 W000.10.02.138
N051.09.06.081 W000.10.02.095

;Between_26L_and_Y
REGIONNAME Gatwick
smrGrass N051.08.55.394 W000.10.15.082
N051.08.57.319 W000.10.00.974
N051.08.58.320 W000.09.54.004
N051.08.58.612 W000.09.52.568
N051.08.58.962 W000.09.51.300
N051.08.59.302 W000.09.50.582
N051.08.59.521 W000.09.50.490
N051.08.59.956 W000.09.50.377
N051.09.04.710 W000.09.51.774
N051.09.07.713 W000.09.52.788
N051.09.08.963 W000.09.53.366
N051.09.09.850 W000.09.53.952
N051.09.10.021 W000.09.54.273
N051.09.10.100 W000.09.54.680
N051.09.10.085 W000.09.55.119
N051.09.10.019 W000.09.55.600
N051.09.09.791 W000.09.57.257
N051.09.09.498 W000.09.58.163
N051.09.09.159 W000.09.58.462
N051.09.08.803 W000.09.58.418
N051.09.08.394 W000.09.58.490
N051.09.07.845 W000.09.58.398
N051.09.06.619 W000.09.58.029
N051.09.06.816 W000.09.56.518
N051.09.04.376 W000.09.55.675
N051.09.03.922 W000.09.59.403
N051.09.03.220 W000.10.04.224
N051.09.01.873 W000.10.14.230
N051.09.00.049 W000.10.27.107
N051.08.59.140 W000.10.33.753
N051.08.58.920 W000.10.33.831
N051.08.58.466 W000.10.36.995
N051.08.56.516 W000.10.36.326
N051.08.55.716 W000.10.35.944
N051.08.55.363 W000.10.35.747
N051.08.54.955 W000.10.35.499
N051.08.54.374 W000.10.35.005
N051.08.54.072 W000.10.34.689
N051.08.53.741 W000.10.34.339
N051.08.53.559 W000.10.33.883
N051.08.53.362 W000.10.33.276
N051.08.53.215 W000.10.32.168
N051.08.53.403 W000.10.29.942

;Taxiway_B_Island
REGIONNAME Gatwick
smrGrass N051.09.03.504 W000.10.18.736
N051.09.03.576 W000.10.18.641
N051.09.03.677 W000.10.18.619
N051.09.03.773 W000.10.18.632
N051.09.03.880 W000.10.18.713
N051.09.04.195 W000.10.18.929
N051.09.04.206 W000.10.19.038
N051.09.04.149 W000.10.19.189
N051.09.03.404 W000.10.20.713
N051.09.03.337 W000.10.20.709
N051.09.03.263 W000.10.20.674
N051.09.03.233 W000.10.20.550

;P_Island1
REGIONNAME Gatwick
smrGrass N051.09.21.212 W000.10.29.414
N051.09.21.735 W000.10.29.368
N051.09.22.161 W000.10.29.442
N051.09.22.823 W000.10.29.583
N051.09.23.378 W000.10.29.749
N051.09.23.941 W000.10.29.999
N051.09.24.331 W000.10.30.148
N051.09.24.599 W000.10.30.275
N051.09.25.240 W000.10.30.645
N051.09.25.826 W000.10.31.061
N051.09.26.165 W000.10.31.399
N051.09.26.340 W000.10.31.687
N051.09.26.332 W000.10.32.033
N051.09.26.326 W000.10.32.225
N051.09.26.182 W000.10.32.528
N051.09.26.027 W000.10.32.581
N051.09.25.689 W000.10.32.504
N051.09.25.704 W000.10.32.382
N051.09.21.019 W000.10.30.687

;P_Island2
REGIONNAME Gatwick
smrGrass N051.09.27.021 W000.10.27.922
N051.09.26.889 W000.10.28.384
N051.09.26.756 W000.10.28.704
N051.09.26.584 W000.10.28.844
N051.09.26.380 W000.10.28.906
N051.09.25.784 W000.10.28.954
N051.09.25.421 W000.10.28.950
N051.09.24.873 W000.10.28.846
N051.09.24.442 W000.10.28.751
N051.09.23.862 W000.10.28.549
N051.09.23.269 W000.10.28.210
N051.09.22.871 W000.10.27.945
N051.09.22.549 W000.10.27.665
N051.09.22.261 W000.10.27.435
N051.09.22.092 W000.10.27.149
N051.09.22.028 W000.10.26.883
N051.09.21.996 W000.10.26.586
N051.09.21.981 W000.10.26.433
N051.09.22.011 W000.10.26.148

;P_Island3
REGIONNAME Gatwick
smrGrass N051.09.17.492 W000.10.29.406
N051.09.16.561 W000.10.29.097
N051.09.16.804 W000.10.27.447
N051.09.17.693 W000.10.27.966
N051.09.18.212 W000.10.28.424
N051.09.18.042 W000.10.29.508
N051.09.17.747 W000.10.29.448

;P_Island4
REGIONNAME Gatwick
smrGrass N051.09.17.711 W000.10.24.358
N051.09.17.963 W000.10.24.009
N051.09.18.185 W000.10.23.902
N051.09.18.459 W000.10.23.871
N051.09.18.801 W000.10.23.909
N051.09.19.090 W000.10.23.928
N051.09.19.431 W000.10.24.119
N051.09.19.898 W000.10.24.511
N051.09.20.182 W000.10.24.746
N051.09.20.406 W000.10.25.046
N051.09.20.501 W000.10.25.436
N051.09.20.443 W000.10.25.893
N051.09.20.382 W000.10.26.300
N051.09.20.257 W000.10.26.533
N051.09.20.103 W000.10.26.621
N051.09.19.295 W000.10.26.714
N051.09.18.754 W000.10.26.651
N051.09.17.833 W000.10.26.038
N051.09.17.598 W000.10.25.467
N051.09.17.548 W000.10.25.074
N051.09.17.513 W000.10.24.736

;P_Island5
REGIONNAME Gatwick
smrGrass N051.09.13.049 W000.10.26.174
N051.09.14.511 W000.10.26.560
N051.09.16.070 W000.10.27.120
N051.09.15.909 W000.10.28.403
N051.09.15.790 W000.10.28.626
N051.09.15.585 W000.10.28.655
N051.09.15.517 W000.10.28.749
N051.09.12.833 W000.10.27.728

;P_Island6
REGIONNAME Gatwick
smrGrass N051.09.14.208 W000.10.22.521
N051.09.15.072 W000.10.22.456
N051.09.15.505 W000.10.22.791
N051.09.15.831 W000.10.23.054
N051.09.16.041 W000.10.23.654
N051.09.16.096 W000.10.24.127
N051.09.16.081 W000.10.24.436
N051.09.15.954 W000.10.24.654
N051.09.15.842 W000.10.24.813
N051.09.15.702 W000.10.25.110
N051.09.15.566 W000.10.25.194
N051.09.14.912 W000.10.25.116
N051.09.14.368 W000.10.24.810
N051.09.13.850 W000.10.24.279
N051.09.13.764 W000.10.23.445

;P_Island7
REGIONNAME Gatwick
smrGrass N051.09.11.894 W000.10.22.275
N051.09.12.049 W000.10.21.991
N051.09.12.179 W000.10.21.903
N051.09.12.349 W000.10.21.927
N051.09.12.479 W000.10.22.071
N051.09.12.520 W000.10.22.294
N051.09.12.536 W000.10.22.521
N051.09.12.488 W000.10.22.872
N051.09.12.411 W000.10.23.294
N051.09.12.358 W000.10.23.493
N051.09.12.275 W000.10.23.630
N051.09.12.196 W000.10.23.685
N051.09.12.045 W000.10.23.699
N051.09.11.939 W000.10.23.621
N051.09.11.864 W000.10.23.496
N051.09.11.804 W000.10.23.377
N051.09.11.777 W000.10.23.127

;P_Island8
REGIONNAME Gatwick
smrGrass N051.09.09.464 W000.10.21.147
N051.09.09.624 W000.10.20.896
N051.09.09.772 W000.10.20.773
N051.09.09.898 W000.10.20.742
N051.09.10.169 W000.10.20.997
N051.09.10.127 W000.10.21.342
N051.09.10.371 W000.10.21.517
N051.09.10.481 W000.10.21.706
N051.09.10.523 W000.10.21.909
N051.09.10.541 W000.10.22.152
N051.09.10.550 W000.10.22.353
N051.09.10.531 W000.10.22.569
N051.09.10.414 W000.10.22.524
N051.09.10.205 W000.10.22.642
N051.09.09.965 W000.10.22.611
N051.09.09.811 W000.10.22.516
N051.09.09.610 W000.10.22.257
N051.09.09.444 W000.10.21.940
N051.09.09.365 W000.10.21.465

;Between_Z_and_J
REGIONNAME Gatwick
smrGrass N051.09.13.070 W000.10.12.219
N051.09.13.632 W000.10.07.950
N051.09.13.852 W000.10.06.539
N051.09.14.102 W000.10.05.823
N051.09.14.157 W000.10.05.176
N051.09.15.173 W000.10.05.470
N051.09.14.255 W000.10.12.249
N051.09.13.682 W000.10.12.073
N051.09.13.398 W000.10.14.220
N051.09.13.762 W000.10.14.560
N051.09.13.820 W000.10.14.917
N051.09.13.792 W000.10.15.539
N051.09.13.487 W000.10.17.765
N051.09.12.982 W000.10.19.535
N051.09.12.793 W000.10.19.855
N051.09.12.657 W000.10.19.883
N051.09.12.576 W000.10.19.892
N051.09.12.603 W000.10.19.695
N051.09.12.496 W000.10.19.610
N051.09.12.407 W000.10.19.387
N051.09.12.374 W000.10.18.778
N051.09.12.375 W000.10.17.701
N051.09.12.470 W000.10.16.559

;KA_Island
REGIONNAME Gatwick
smrGrass N051.09.23.827 W000.10.15.042
N051.09.24.141 W000.10.14.729
N051.09.25.276 W000.10.14.554
N051.09.26.180 W000.10.14.702
N051.09.26.771 W000.10.14.968
N051.09.26.865 W000.10.14.848
N051.09.27.755 W000.10.15.481
N051.09.27.679 W000.10.15.552
N051.09.28.196 W000.10.15.976
N051.09.28.367 W000.10.16.267
N051.09.28.457 W000.10.16.649
N051.09.28.519 W000.10.17.120
N051.09.28.525 W000.10.17.337
N051.09.25.851 W000.10.16.467
N051.09.23.501 W000.10.15.640

;L_Island
REGIONNAME Gatwick
smrGrass N051.09.26.945 W000.10.20.774
N051.09.28.068 W000.10.21.149
N051.09.27.884 W000.10.22.338
N051.09.27.987 W000.10.22.373
N051.09.27.859 W000.10.23.270
N051.09.27.772 W000.10.23.218
N051.09.27.643 W000.10.24.251
N051.09.26.525 W000.10.23.822

;Q_Island1
REGIONNAME Gatwick
smrGrass N051.09.37.804 W000.10.55.710
N051.09.37.886 W000.10.55.529
N051.09.38.068 W000.10.55.175
N051.09.38.545 W000.10.54.929
N051.09.39.004 W000.10.54.856
N051.09.39.969 W000.10.54.937
N051.09.39.746 W000.10.56.745
N051.09.37.766 W000.10.55.997

;Q_Island2
REGIONNAME Gatwick
smrGrass N051.09.28.853 W000.10.53.891
N051.09.28.461 W000.10.53.450
N051.09.28.243 W000.10.53.034
N051.09.28.113 W000.10.52.684
N051.09.28.111 W000.10.52.411
N051.09.28.184 W000.10.52.133
N051.09.28.383 W000.10.51.805
N051.09.28.802 W000.10.51.557
N051.09.29.622 W000.10.51.483
N051.09.30.569 W000.10.51.543
N051.09.31.796 W000.10.51.877
N051.09.33.234 W000.10.52.428
N051.09.34.005 W000.10.52.711
N051.09.35.063 W000.10.53.336
N051.09.35.924 W000.10.54.025
N051.09.36.285 W000.10.54.699
N051.09.36.351 W000.10.55.170
N051.09.36.225 W000.10.55.557
N051.09.35.948 W000.10.55.925
N051.09.35.160 W000.10.56.151
N051.09.34.477 W000.10.56.074
N051.09.33.421 W000.10.55.865
N051.09.31.983 W000.10.55.433
N051.09.30.267 W000.10.54.754
N051.09.29.571 W000.10.54.386

;Q_QB_Island
REGIONNAME Gatwick
smrGrass N051.09.25.419 W000.10.51.071
N051.09.25.673 W000.10.50.784
N051.09.25.862 W000.10.50.668
N051.09.26.088 W000.10.50.645
N051.09.26.242 W000.10.50.747
N051.09.26.375 W000.10.50.927
N051.09.26.444 W000.10.51.153
N051.09.26.529 W000.10.51.352
N051.09.26.586 W000.10.51.576
N051.09.26.580 W000.10.51.829
N051.09.26.527 W000.10.52.065
N051.09.26.443 W000.10.52.254
N051.09.26.252 W000.10.52.418
N051.09.26.079 W000.10.52.637
N051.09.25.883 W000.10.52.659
N051.09.25.743 W000.10.52.636
N051.09.25.575 W000.10.52.401
N051.09.25.426 W000.10.52.110
N051.09.25.310 W000.10.51.753
N051.09.25.310 W000.10.51.392

;R_RA_Island
REGIONNAME Gatwick
smrGrass N051.09.23.122 W000.10.56.167
N051.09.23.228 W000.10.56.380
N051.09.23.049 W000.10.57.747
N051.09.22.851 W000.10.58.442
N051.09.22.742 W000.10.58.971
N051.09.22.501 W000.10.59.498
N051.09.21.685 W000.10.59.644
N051.09.20.036 W000.10.59.362

;RA_L_Island
REGIONNAME Gatwick
smrGrass N051.09.18.729 W000.11.01.208
N051.09.19.407 W000.11.00.543
N051.09.19.425 W000.11.00.406
N051.09.20.772 W000.11.00.966
N051.09.21.544 W000.11.01.490
N051.09.22.033 W000.11.02.003
N051.09.22.159 W000.11.02.375
N051.09.22.240 W000.11.02.926
N051.09.22.092 W000.11.03.356
N051.09.21.928 W000.11.03.487
N051.09.18.563 W000.11.02.307

;Fire_ATC_Island
REGIONNAME Gatwick
smrGrass N051.09.06.149 W000.11.11.573
N051.09.05.978 W000.11.11.265
N051.09.05.917 W000.11.10.487
N051.09.05.948 W000.11.08.783
N051.09.06.093 W000.11.07.387
N051.09.06.307 W000.11.05.393
N051.09.06.602 W000.11.03.430
N051.09.06.775 W000.11.02.119
N051.09.07.082 W000.11.00.484
N051.09.07.530 W000.10.58.541
N051.09.07.860 W000.10.57.623
N051.09.08.005 W000.10.57.413
N051.09.08.346 W000.10.57.244
N051.09.09.371 W000.10.57.196
N051.09.13.557 W000.10.58.395
N051.09.13.616 W000.10.58.842
N051.09.13.504 W000.11.00.340
N051.09.12.967 W000.11.00.215
N051.09.12.564 W000.11.03.216
N051.09.14.271 W000.11.03.794
N051.09.14.641 W000.11.00.714
N051.09.14.231 W000.11.00.567
N051.09.14.280 W000.10.59.930
N051.09.14.402 W000.10.59.090
N051.09.14.584 W000.10.58.828
N051.09.14.780 W000.10.58.897
N051.09.14.955 W000.10.58.960
N051.09.16.184 W000.10.59.430
N051.09.16.481 W000.11.00.155
N051.09.16.319 W000.11.01.287
N051.09.16.083 W000.11.01.318
N051.09.15.406 W000.11.06.140
N051.09.17.758 W000.11.06.966
N051.09.17.474 W000.11.08.963
N051.09.07.712 W000.11.05.641
N051.09.07.334 W000.11.08.337
N051.09.06.837 W000.11.11.820
N051.09.06.496 W000.11.11.769

;R_Q_Island1
REGIONNAME Gatwick
smrGrass N051.09.16.784 W000.10.56.077
N051.09.17.042 W000.10.55.806
N051.09.17.428 W000.10.55.715
N051.09.18.836 W000.10.55.079
N051.09.20.026 W000.10.54.168
N051.09.20.301 W000.10.54.161
N051.09.22.651 W000.10.54.891
N051.09.22.519 W000.10.55.151
N051.09.20.237 W000.10.57.566
N051.09.19.432 W000.10.58.199
N051.09.18.970 W000.10.58.389
N051.09.18.581 W000.10.58.469
N051.09.17.996 W000.10.58.462
N051.09.17.401 W000.10.58.100
N051.09.16.930 W000.10.57.690
N051.09.16.623 W000.10.57.213
N051.09.16.548 W000.10.56.542

;R_Q_Island2
REGIONNAME Gatwick
smrGrass N051.09.09.198 W000.10.53.994
N051.09.10.578 W000.10.54.501
N051.09.10.914 W000.10.53.609
N051.09.11.985 W000.10.53.947
N051.09.12.105 W000.10.53.229
N051.09.13.107 W000.10.53.586
N051.09.13.629 W000.10.53.841
N051.09.14.131 W000.10.54.255
N051.09.14.586 W000.10.54.653
N051.09.14.971 W000.10.55.276
N051.09.15.091 W000.10.55.685
N051.09.15.050 W000.10.56.311
N051.09.14.828 W000.10.56.668
N051.09.13.930 W000.10.56.889
N051.09.12.972 W000.10.56.777
N051.09.11.873 W000.10.56.519
N051.09.11.132 W000.10.56.294
N051.09.09.714 W000.10.55.595
N051.09.08.763 W000.10.54.929

;West_Park_Q_Island
REGIONNAME Gatwick
smrGrass N051.09.12.605 W000.10.49.345
N051.09.14.327 W000.10.49.886
N051.09.13.999 W000.10.52.258
N051.09.13.855 W000.10.52.393
N051.09.12.227 W000.10.51.902

;West_Park_Island1
REGIONNAME Gatwick
smrGrass N051.09.13.413 W000.10.43.396
N051.09.13.595 W000.10.43.448
N051.09.13.635 W000.10.43.653
N051.09.13.060 W000.10.47.910
N051.09.12.976 W000.10.48.146
N051.09.12.816 W000.10.48.317

;West_Park_Island2
REGIONNAME Gatwick
smrGrass N051.09.13.589 W000.10.42.541
N051.09.13.801 W000.10.42.468
N051.09.13.734 W000.10.43.159
N051.09.13.494 W000.10.43.118

;West_Park_Island3
REGIONNAME Gatwick
smrGrass N051.09.13.606 W000.10.39.517
N051.09.13.688 W000.10.38.963
N051.09.14.089 W000.10.39.128
N051.09.13.837 W000.10.39.837
N051.09.13.725 W000.10.39.739

;West_Park_Island3
REGIONNAME Gatwick
smrGrass N051.09.14.002 W000.10.36.768
N051.09.14.229 W000.10.36.383
N051.09.14.617 W000.10.36.561
N051.09.14.497 W000.10.37.769
N051.09.14.155 W000.10.38.936
N051.09.13.728 W000.10.38.698

;West_Park_Island4
REGIONNAME Gatwick
smrGrass N051.09.14.547 W000.10.33.124
N051.09.14.650 W000.10.32.591
N051.09.15.147 W000.10.32.776
N051.09.15.088 W000.10.33.313

;R_Cargo_Island
REGIONNAME Gatwick
smrGrass N051.09.24.340 W000.10.56.835
N051.09.24.559 W000.10.55.962
N051.09.24.857 W000.10.55.211
N051.09.25.277 W000.10.54.989
N051.09.26.096 W000.10.54.973
N051.09.27.434 W000.10.55.093
N051.09.36.123 W000.10.58.136
N051.09.37.942 W000.11.00.141
N051.09.37.840 W000.11.00.784
N051.09.30.651 W000.10.58.362
N051.09.27.213 W000.10.57.075
N051.09.26.303 W000.10.56.881
N051.09.25.706 W000.10.57.207
N051.09.25.399 W000.10.57.716
N051.09.24.315 W000.10.57.342

;South_Maintenance1
REGIONNAME Gatwick
smrGrass N051.08.52.428 W000.10.26.478
N051.08.52.294 W000.10.26.426
N051.08.52.290 W000.10.26.265
N051.08.52.159 W000.10.26.192
N051.08.52.201 W000.10.25.913
N051.08.52.107 W000.10.25.877
N051.08.52.342 W000.10.23.913
N051.08.52.687 W000.10.24.068
N051.08.52.897 W000.10.24.556
N051.08.52.996 W000.10.26.859
N051.08.52.400 W000.10.26.763

;South_Maintenance2
REGIONNAME Gatwick
smrGrass N051.08.53.083 W000.10.18.656
N051.08.53.526 W000.10.18.822
N051.08.53.857 W000.10.19.172
N051.08.53.946 W000.10.19.522
N051.08.53.385 W000.10.21.565
N051.08.53.211 W000.10.21.881
N051.08.52.984 W000.10.21.974
N051.08.52.684 W000.10.21.904

;South_Maintenance3
REGIONNAME Gatwick
smrGrass N051.08.53.795 W000.10.13.600
N051.08.53.741 W000.10.13.488
N051.08.53.903 W000.10.11.828
N051.08.53.998 W000.10.11.186
N051.08.54.214 W000.10.09.642
N051.08.54.823 W000.10.09.844
N051.08.55.050 W000.10.10.040
N051.08.55.155 W000.10.10.575
N051.08.55.123 W000.10.11.173
N051.08.54.915 W000.10.12.477
N051.08.54.686 W000.10.13.437
N051.08.54.497 W000.10.13.935
N051.08.54.284 W000.10.14.128
N051.08.53.868 W000.10.14.061
N051.08.53.737 W000.10.13.988

;South_Maintenance4
REGIONNAME Gatwick
smrGrass N051.08.54.614 W000.10.07.307
N051.08.54.487 W000.10.07.214
N051.08.54.809 W000.10.04.568
N051.08.54.399 W000.10.04.389
N051.08.54.566 W000.10.03.172
N051.08.54.925 W000.10.02.656
N051.08.55.237 W000.10.02.549
N051.08.55.763 W000.10.02.906
N051.08.55.929 W000.10.03.216
N051.08.55.968 W000.10.04.289
N051.08.55.970 W000.10.05.327
N051.08.55.529 W000.10.08.084
N051.08.55.328 W000.10.08.773
N051.08.54.992 W000.10.08.847
N051.08.54.498 W000.10.08.748

;South_Maintenance5
REGIONNAME Gatwick
smrGrass N051.08.55.404 W000.09.58.296
N051.08.55.940 W000.09.57.637
N051.08.56.343 W000.09.57.968
N051.08.56.640 W000.09.58.350
N051.08.56.715 W000.09.59.077
N051.08.56.690 W000.09.59.721
N051.08.56.472 W000.10.00.608
N051.08.56.281 W000.10.00.942
N051.08.56.119 W000.10.01.083
N051.08.55.692 W000.10.01.102
N051.08.55.448 W000.10.01.033
N051.08.55.266 W000.10.00.740
N051.08.55.086 W000.10.00.336

;South_Maintenance6
REGIONNAME Gatwick
smrGrass N051.08.56.590 W000.09.52.628
N051.08.56.674 W000.09.51.682
N051.08.56.984 W000.09.50.842
N051.08.57.520 W000.09.51.063
N051.08.57.745 W000.09.51.556
N051.08.57.762 W000.09.52.108
N051.08.57.225 W000.09.55.503
N051.08.57.028 W000.09.56.340
N051.08.56.670 W000.09.56.457
N051.08.56.398 W000.09.56.470
N051.08.56.050 W000.09.56.431

;South_Maintenance7
REGIONNAME Gatwick
smrGrass N051.08.58.057 W000.09.48.389
N051.08.58.633 W000.09.47.751
N051.08.58.718 W000.09.47.558
N051.08.59.545 W000.09.48.750
N051.08.58.475 W000.09.49.383
N051.08.58.195 W000.09.49.840
N051.08.57.852 W000.09.49.958
N051.08.57.565 W000.09.49.984
N051.08.57.503 W000.09.49.645

;41_42_43
REGIONNAME Gatwick
smrGrey N051.09.24.419 W000.10.16.008
N051.09.27.161 W000.10.16.923
N051.09.25.719 W000.10.27.468
N051.09.22.948 W000.10.26.451

;41_42
REGIONNAME Gatwick
smrBuilding N051.09.23.670 W000.10.19.987
N051.09.23.728 W000.10.19.671
N051.09.26.796 W000.10.20.758
N051.09.26.744 W000.10.21.103

;42_43
REGIONNAME Gatwick
smrBuilding N051.09.23.406 W000.10.22.705
N051.09.23.452 W000.10.22.367
N051.09.26.384 W000.10.23.416
N051.09.26.344 W000.10.23.731

;Stand235
REGIONNAME Gatwick
smrGrey N051.09.17.625 W000.11.42.884
N051.09.17.940 W000.11.42.609
N051.09.19.666 W000.11.43.168
N051.09.20.131 W000.11.44.411
N051.09.19.673 W000.11.47.805
N051.09.17.072 W000.11.46.896

;Stand234
REGIONNAME Gatwick
smrGrey N051.09.14.815 W000.11.41.909
N051.09.15.111 W000.11.41.613
N051.09.17.235 W000.11.42.353
N051.09.17.414 W000.11.42.812
N051.09.16.858 W000.11.46.854
N051.09.14.284 W000.11.45.939

;Stand233
REGIONNAME Gatwick
smrGrey N051.09.11.987 W000.11.40.961
N051.09.12.297 W000.11.40.640
N051.09.14.422 W000.11.41.364
N051.09.14.586 W000.11.41.848
N051.09.14.037 W000.11.45.870
N051.09.11.446 W000.11.44.938

;Stand232
REGIONNAME Gatwick
smrGrey N051.09.09.184 W000.11.39.927
N051.09.09.497 W000.11.39.654
N051.09.11.596 W000.11.40.400
N051.09.11.773 W000.11.40.872
N051.09.11.233 W000.11.44.867
N051.09.08.622 W000.11.44.022

;Stand231
REGIONNAME Gatwick
smrGrey N051.09.06.380 W000.11.38.972
N051.09.06.682 W000.11.38.649
N051.09.08.779 W000.11.39.425
N051.09.08.971 W000.11.39.902
N051.09.08.412 W000.11.43.901
N051.09.05.808 W000.11.42.989

;Stand230
REGIONNAME Gatwick
smrGrey N051.09.03.512 W000.11.38.464
N051.09.03.561 W000.11.38.162
N051.09.03.630 W000.11.38.003
N051.09.03.732 W000.11.37.886
N051.09.03.830 W000.11.37.721
N051.09.05.976 W000.11.38.454
N051.09.06.139 W000.11.38.935
N051.09.05.597 W000.11.42.918
N051.09.03.020 W000.11.41.988

;Stand130
REGIONNAME Gatwick
smrGrey N051.09.15.785 W000.10.32.044
N051.09.15.610 W000.10.31.591
N051.09.15.877 W000.10.29.642
N051.09.15.952 W000.10.29.538
N051.09.16.020 W000.10.29.491
N051.09.16.285 W000.10.29.602
N051.09.16.623 W000.10.29.528
N051.09.18.006 W000.10.30.019
N051.09.17.636 W000.10.32.668

;Stand131
REGIONNAME Gatwick
smrGrey N051.09.15.381 W000.10.35.183
N051.09.15.175 W000.10.34.680
N051.09.15.448 W000.10.32.682
N051.09.15.762 W000.10.32.411
N051.09.17.592 W000.10.33.001
N051.09.17.188 W000.10.35.791

;Stand132
REGIONNAME Gatwick
smrGrey N051.09.14.953 W000.10.38.129
N051.09.14.769 W000.10.37.694
N051.09.14.978 W000.10.35.989
N051.09.15.313 W000.10.35.645
N051.09.17.124 W000.10.36.261
N051.09.16.789 W000.10.38.766

;Stand133
REGIONNAME Gatwick
smrGrey N051.09.14.347 W000.10.40.724
N051.09.14.625 W000.10.38.761
N051.09.14.917 W000.10.38.500
N051.09.16.743 W000.10.39.093
N051.09.16.366 W000.10.41.801
N051.09.14.551 W000.10.41.185

;Stand134
REGIONNAME Gatwick
smrGrey N051.09.14.164 W000.10.44.253
N051.09.13.954 W000.10.43.705
N051.09.14.208 W000.10.41.831
N051.09.14.499 W000.10.41.573
N051.09.16.321 W000.10.42.159
N051.09.15.945 W000.10.44.877

;Stand135
REGIONNAME Gatwick
smrGrey N051.09.13.774 W000.10.47.158
N051.09.13.556 W000.10.46.590
N051.09.13.797 W000.10.44.829
N051.09.14.153 W000.10.44.482
N051.09.15.897 W000.10.45.095
N051.09.15.545 W000.10.47.776

;Stand136
REGIONNAME Gatwick
smrGrey N051.09.14.456 W000.10.49.751
N051.09.14.336 W000.10.49.592
N051.09.13.484 W000.10.49.257
N051.09.13.279 W000.10.48.776
N051.09.13.390 W000.10.47.757
N051.09.13.772 W000.10.47.359
N051.09.15.528 W000.10.48.003
N051.09.15.269 W000.10.49.975

;Stand140
REGIONNAME Gatwick
smrGrey N051.09.11.854 W000.10.31.055
N051.09.12.282 W000.10.27.930
N051.09.14.009 W000.10.28.523
N051.09.14.330 W000.10.28.946
N051.09.14.435 W000.10.29.000
N051.09.14.608 W000.10.29.463
N051.09.14.328 W000.10.31.512
N051.09.13.937 W000.10.31.763

;Stand141
REGIONNAME Gatwick
smrGrey N051.09.11.387 W000.10.34.338
N051.09.11.808 W000.10.31.265
N051.09.13.916 W000.10.31.997
N051.09.14.186 W000.10.32.529
N051.09.13.885 W000.10.34.705
N051.09.13.523 W000.10.35.061

;Stand142
REGIONNAME Gatwick
smrGrey N051.09.10.866 W000.10.38.185
N051.09.11.370 W000.10.34.649
N051.09.13.468 W000.10.35.378
N051.09.13.718 W000.10.36.011
N051.09.13.361 W000.10.38.585
N051.09.12.993 W000.10.38.949

;Stand143
REGIONNAME Gatwick
smrGrey N051.09.10.841 W000.10.38.411
N051.09.12.974 W000.10.39.173
N051.09.13.197 W000.10.39.710
N051.09.12.849 W000.10.42.369
N051.09.12.483 W000.10.42.772
N051.09.10.330 W000.10.42.018

;Stand144
REGIONNAME Gatwick
smrGrey N051.09.09.863 W000.10.45.744
N051.09.10.323 W000.10.42.279
N051.09.12.480 W000.10.42.991
N051.09.12.681 W000.10.43.517
N051.09.12.275 W000.10.46.268
N051.09.11.930 W000.10.46.483

;Stand145
REGIONNAME Gatwick
smrGrey N051.09.09.392 W000.10.48.890
N051.09.09.799 W000.10.45.936
N051.09.11.959 W000.10.46.715
N051.09.12.172 W000.10.47.225
N051.09.11.802 W000.10.49.772

;Stand150
REGIONNAME Gatwick
smrGrey N051.09.18.656 W000.11.06.315
N051.09.18.485 W000.11.05.867
N051.09.18.804 W000.11.03.222
N051.09.19.135 W000.11.02.865
N051.09.21.386 W000.11.03.671
N051.09.20.926 W000.11.07.101

;Stand151
REGIONNAME Gatwick
smrGrey N051.09.18.128 W000.11.10.068
N051.09.17.914 W000.11.09.567
N051.09.18.296 W000.11.06.988
N051.09.18.611 W000.11.06.680
N051.09.20.862 W000.11.07.446
N051.09.20.383 W000.11.10.869

;Stand152
REGIONNAME Gatwick
smrGrey N051.09.17.268 W000.11.13.922
N051.09.17.091 W000.11.13.518
N051.09.17.416 W000.11.11.146
N051.09.18.100 W000.11.10.414
N051.09.20.340 W000.11.11.205
N051.09.19.827 W000.11.14.850

;Stand153
REGIONNAME Gatwick
smrGrey N051.09.26.552 W000.11.02.287
N051.09.26.607 W000.11.02.347
N051.09.26.535 W000.11.02.847
N051.09.26.458 W000.11.02.893
N051.09.26.353 W000.11.03.804
N051.09.24.554 W000.11.03.155
N051.09.24.889 W000.11.00.673
N051.09.26.462 W000.11.01.285

;Stand154
REGIONNAME Gatwick
smrGrey N051.09.24.520 W000.11.03.497
N051.09.26.315 W000.11.04.173
N051.09.26.020 W000.11.06.177
N051.09.24.229 W000.11.05.549

;Stand155
REGIONNAME Gatwick
smrGrey N051.09.26.165 W000.11.07.771
N051.09.25.948 W000.11.09.256
N051.09.23.824 W000.11.08.516
N051.09.24.192 W000.11.05.915
N051.09.26.083 W000.11.06.592

;Stand156
REGIONNAME Gatwick
smrGrey N051.09.23.434 W000.11.11.502
N051.09.23.784 W000.11.08.836
N051.09.25.895 W000.11.09.602
N051.09.25.558 W000.11.12.205

;Stand157
REGIONNAME Gatwick
smrGrey N051.09.25.432 W000.11.12.992
N051.09.25.228 W000.11.12.983
N051.09.24.931 W000.11.15.097
N051.09.23.029 W000.11.14.381
N051.09.23.369 W000.11.11.790
N051.09.25.514 W000.11.12.540

;Stand158
REGIONNAME Gatwick
smrGrey N051.09.22.823 W000.11.15.932
N051.09.24.561 W000.11.16.525
N051.09.24.850 W000.11.17.277
N051.09.24.504 W000.11.18.256
N051.09.24.379 W000.11.19.246
N051.09.22.444 W000.11.18.551

;Stand159
REGIONNAME Gatwick
smrGrey N051.09.24.249 W000.11.21.557
N051.09.23.904 W000.11.22.106
N051.09.21.794 W000.11.21.313
N051.09.22.040 W000.11.20.599
N051.09.22.300 W000.11.19.566
N051.09.22.387 W000.11.18.938
N051.09.24.249 W000.11.19.571
N051.09.24.416 W000.11.20.371

;Stand160
REGIONNAME Gatwick
smrGrey N051.09.18.215 W000.11.06.190
N051.09.17.925 W000.11.06.496
N051.09.15.897 W000.11.05.813
N051.09.15.692 W000.11.05.370
N051.09.15.875 W000.11.04.044
N051.09.15.728 W000.11.03.981
N051.09.16.054 W000.11.01.570
N051.09.18.743 W000.11.02.435

;Stand161
REGIONNAME Gatwick
smrGrey N051.09.14.112 W000.11.03.287
N051.09.13.828 W000.11.03.585
N051.09.13.012 W000.11.03.313
N051.09.12.844 W000.11.02.840
N051.09.13.189 W000.11.00.284
N051.09.14.479 W000.11.00.682

;Stand170
REGIONNAME Gatwick
smrGrey N051.09.08.185 W000.11.20.474
N051.09.07.883 W000.11.20.791
N051.09.06.190 W000.11.20.168
N051.09.06.029 W000.11.19.728
N051.09.06.567 W000.11.15.676
N051.09.08.727 W000.11.16.503

;Stand171
REGIONNAME Gatwick
smrGrey N051.09.07.749 W000.11.06.950
N051.09.08.083 W000.11.06.570
N051.09.09.764 W000.11.07.173
N051.09.09.960 W000.11.07.655
N051.09.09.392 W000.11.11.676
N051.09.07.237 W000.11.10.918

;Stand712
REGIONNAME Gatwick
smrGrey N051.09.10.266 W000.11.21.623
N051.09.08.566 W000.11.21.005
N051.09.08.408 W000.11.20.537
N051.09.08.972 W000.11.16.569
N051.09.11.124 W000.11.17.310
N051.09.10.593 W000.11.21.256

;Stand173
REGIONNAME Gatwick
smrGrey N051.09.09.612 W000.11.11.754
N051.09.10.151 W000.11.07.762
N051.09.10.455 W000.11.07.415
N051.09.12.140 W000.11.08.009
N051.09.12.324 W000.11.08.501
N051.09.11.781 W000.11.12.535

;Stand174
REGIONNAME Gatwick
smrGrey N051.09.12.964 W000.11.22.096
N051.09.12.654 W000.11.22.465
N051.09.10.952 W000.11.21.876
N051.09.10.778 W000.11.21.404
N051.09.11.344 W000.11.17.408
N051.09.13.455 W000.11.18.124

;Stand175
REGIONNAME Gatwick
smrGrey N051.09.12.545 W000.11.08.588
N051.09.12.855 W000.11.08.257
N051.09.14.517 W000.11.08.841
N051.09.14.722 W000.11.09.325
N051.09.14.165 W000.11.13.345
N051.09.11.996 W000.11.12.593

;Stand176
REGIONNAME Gatwick
smrGrey N051.09.13.193 W000.11.22.224
N051.09.13.729 W000.11.18.190
N051.09.15.871 W000.11.18.911
N051.09.15.464 W000.11.21.996
N051.09.15.319 W000.11.22.946
N051.09.15.140 W000.11.23.095
N051.09.14.749 W000.11.23.184
N051.09.13.344 W000.11.22.679

;Stand177
REGIONNAME Gatwick
smrGrey N051.09.14.393 W000.11.13.402
N051.09.14.929 W000.11.09.380
N051.09.15.217 W000.11.09.084
N051.09.17.050 W000.11.09.667
N051.09.17.228 W000.11.10.120
N051.09.16.666 W000.11.14.158

;Stand178
REGIONNAME Gatwick
smrGrey N051.09.16.457 W000.11.19.130
N051.09.18.615 W000.11.19.829
N051.09.18.122 W000.11.23.321
N051.09.17.761 W000.11.23.579
N051.09.16.883 W000.11.23.279
N051.09.16.057 W000.11.22.019

;Stand180
REGIONNAME Gatwick
smrGrey N051.09.19.719 W000.11.23.006
N051.09.19.554 W000.11.23.204
N051.09.19.317 W000.11.23.267
N051.09.19.090 W000.11.23.263
N051.09.18.632 W000.11.23.072
N051.09.18.437 W000.11.22.602
N051.09.18.812 W000.11.19.998
N051.09.20.064 W000.11.20.383

;Pier_6
REGIONNAME Gatwick
smrGrey N051.09.20.954 W000.10.30.790
N051.09.25.527 W000.10.32.400
N051.09.23.564 W000.10.46.663
N051.09.17.924 W000.10.52.466
N051.09.17.766 W000.10.52.244
N051.09.20.689 W000.10.31.158

;Pier_6_Building
REGIONNAME Gatwick
smrBuilding N051.09.22.440 W000.10.39.096
N051.09.21.747 W000.10.44.149
N051.09.21.044 W000.10.43.896
N051.09.22.423 W000.10.33.974
N051.09.23.112 W000.10.34.177
N051.09.22.570 W000.10.38.129
N051.09.25.845 W000.10.39.403
N051.09.25.758 W000.10.40.297

;101_102
REGIONNAME Gatwick
smrBuilding N051.09.22.796 W000.10.35.594
N051.09.22.851 W000.10.35.136
N051.09.25.171 W000.10.36.028
N051.09.25.123 W000.10.36.446

;104_105
REGIONNAME Gatwick
smrBuilding N051.09.20.033 W000.10.34.847
N051.09.22.313 W000.10.35.665
N051.09.22.274 W000.10.36.075
N051.09.20.000 W000.10.35.206

;105_106
REGIONNAME Gatwick
smrBuilding N051.09.19.696 W000.10.37.738
N051.09.19.756 W000.10.37.242
N051.09.21.975 W000.10.38.005
N051.09.21.925 W000.10.38.542

;106_107
REGIONNAME Gatwick
smrBuilding N051.09.19.336 W000.10.40.094
N051.09.19.384 W000.10.39.741
N051.09.21.612 W000.10.40.514
N051.09.21.559 W000.10.40.891

;107_109
REGIONNAME Gatwick
smrBuilding N051.09.19.087 W000.10.42.366
N051.09.19.143 W000.10.41.951
N051.09.21.286 W000.10.42.723
N051.09.21.234 W000.10.43.098

;190_110
REGIONNAME Gatwick
smrBuilding N051.09.18.602 W000.10.45.411
N051.09.18.767 W000.10.44.162
N051.09.20.465 W000.10.44.764
N051.09.20.527 W000.10.44.248
N051.09.20.952 W000.10.44.383
N051.09.21.172 W000.10.42.842
N051.09.21.667 W000.10.43.197
N051.09.21.452 W000.10.44.817
N051.09.21.126 W000.10.44.731
N051.09.20.958 W000.10.45.773
N051.09.20.647 W000.10.45.652
N051.09.20.595 W000.10.46.091

;110_111
REGIONNAME Gatwick
smrBuilding N051.09.20.483 W000.10.46.788
N051.09.20.614 W000.10.45.457
N051.09.21.015 W000.10.45.521
N051.09.20.844 W000.10.46.540
N051.09.23.000 W000.10.47.418
N051.09.22.736 W000.10.47.703

;111_112
REGIONNAME Gatwick
smrBuilding N051.09.21.807 W000.10.43.576
N051.09.21.848 W000.10.43.211
N051.09.24.048 W000.10.43.969
N051.09.24.000 W000.10.44.388

;112_113
REGIONNAME Gatwick
smrBuilding N051.09.22.091 W000.10.41.241
N051.09.22.146 W000.10.40.776
N051.09.24.412 W000.10.41.634
N051.09.24.349 W000.10.42.033

;Pier_5_Right
REGIONNAME Gatwick
smrGrey N051.09.29.120 W000.10.42.375
N051.09.31.608 W000.10.43.132
N051.09.48.510 W000.10.49.000
N051.09.48.583 W000.10.50.157
N051.09.47.967 W000.10.54.452
N051.09.43.974 W000.10.53.079
N051.09.34.121 W000.10.49.672
N051.09.26.619 W000.10.47.147
N051.09.27.476 W000.10.40.953
N051.09.29.227 W000.10.41.594

;Stand64
REGIONNAME Gatwick
smrGrey N051.09.46.640 W000.11.01.293
N051.09.46.413 W000.11.01.735
N051.09.45.798 W000.11.02.330
N051.09.45.412 W000.11.02.577
N051.09.44.485 W000.11.02.340
N051.09.44.279 W000.11.01.907
N051.09.44.785 W000.10.58.223
N051.09.46.938 W000.10.58.929

;Stand65
REGIONNAME Gatwick
smrGrey N051.09.44.086 W000.11.01.961
N051.09.43.780 W000.11.02.246
N051.09.41.899 W000.11.01.600
N051.09.41.716 W000.11.01.120
N051.09.42.225 W000.10.57.352
N051.09.44.616 W000.10.58.148

;Stand66
REGIONNAME Gatwick
smrGrey N051.09.41.523 W000.11.01.055
N051.09.41.228 W000.11.01.360
N051.09.39.629 W000.11.00.810
N051.09.39.448 W000.11.00.348
N051.09.39.971 W000.10.56.588
N051.09.42.032 W000.10.57.278

;Stand68
REGIONNAME Gatwick
smrGrey N051.09.39.203 W000.10.58.753
N051.09.39.408 W000.10.59.238
N051.09.39.291 W000.10.59.979
N051.09.39.007 W000.11.00.305
N051.09.37.900 W000.10.59.861
N051.09.38.110 W000.10.58.343

;Stand69
REGIONNAME Gatwick
smrGrey N051.09.38.369 W000.10.56.504
N051.09.39.464 W000.10.56.891
N051.09.39.662 W000.10.57.365
N051.09.39.552 W000.10.58.138
N051.09.39.263 W000.10.58.499
N051.09.38.158 W000.10.58.052

;Pier_5_Building
REGIONNAME Gatwick
smrBuilding N051.09.29.122 W000.10.44.669
N051.09.28.625 W000.10.45.364
N051.09.28.395 W000.10.47.310
N051.09.28.161 W000.10.47.214
N051.09.28.421 W000.10.45.179
N051.09.28.951 W000.10.44.472
N051.09.29.298 W000.10.41.608
N051.09.30.391 W000.10.42.001
N051.09.30.324 W000.10.42.580
N051.09.29.531 W000.10.42.395
N051.09.29.348 W000.10.42.745

;551_2
REGIONNAME Gatwick
smrBuilding N051.09.27.104 W000.10.42.781
N051.09.27.133 W000.10.42.458
N051.09.29.129 W000.10.43.152
N051.09.29.084 W000.10.43.507

;552_3
REGIONNAME Gatwick
smrBuilding N051.09.26.888 W000.10.44.592
N051.09.26.938 W000.10.44.294
N051.09.28.739 W000.10.44.910
N051.09.28.471 W000.10.45.193

;554_56
REGIONNAME Gatwick
smrBuilding N051.09.29.850 W000.10.48.568
N051.09.29.651 W000.10.48.481
N051.09.30.452 W000.10.42.430
N051.09.30.666 W000.10.42.536

;56_57
REGIONNAME Gatwick
smrBuilding N051.09.31.509 W000.10.48.875
N051.09.31.284 W000.10.48.817
N051.09.32.122 W000.10.42.813
N051.09.32.340 W000.10.42.903

;57_58
REGIONNAME Gatwick
smrBuilding N051.09.34.343 W000.10.49.838
N051.09.34.147 W000.10.49.793
N051.09.34.982 W000.10.44.034
N051.09.35.169 W000.10.44.126

;58_59
REGIONNAME Gatwick
smrBuilding N051.09.36.666 W000.10.50.757
N051.09.36.501 W000.10.50.676
N051.09.37.287 W000.10.44.994
N051.09.37.472 W000.10.45.021

;59_565
REGIONNAME Gatwick
smrBuilding N051.09.38.781 W000.10.51.428
N051.09.38.558 W000.10.51.373
N051.09.39.339 W000.10.45.609
N051.09.39.571 W000.10.45.681

;565_574_1
REGIONNAME Gatwick
smrBuilding N051.09.41.177 W000.10.52.291
N051.09.40.977 W000.10.52.220
N051.09.41.859 W000.10.46.048
N051.09.42.061 W000.10.46.154

;Pier_4_b
REGIONNAME Gatwick
smrGrey N051.09.37.906 W000.10.09.593
N051.09.38.048 W000.10.11.175
N051.09.38.103 W000.10.12.663
N051.09.38.036 W000.10.13.699
N051.09.37.928 W000.10.15.726
N051.09.35.319 W000.10.19.265
N051.09.34.804 W000.10.18.465
N051.09.34.655 W000.10.18.656
N051.09.34.550 W000.10.18.559
N051.09.33.710 W000.10.19.585
N051.09.31.932 W000.10.16.746
N051.09.32.052 W000.10.16.514
N051.09.33.081 W000.10.15.622
N051.09.33.880 W000.10.14.869
N051.09.34.640 W000.10.13.891
N051.09.35.223 W000.10.12.820
N051.09.35.796 W000.10.11.471
N051.09.36.247 W000.10.09.703
N051.09.36.440 W000.10.08.313

;Pier_4_a
REGIONNAME Gatwick
smrGrey N051.09.30.872 W000.10.41.253
N051.09.27.627 W000.10.40.005
N051.09.30.730 W000.10.17.565
N051.09.31.789 W000.10.17.133
N051.09.33.716 W000.10.20.318

;46_47
REGIONNAME Gatwick
smrBuilding N051.09.35.776 W000.10.11.112
N051.09.35.892 W000.10.10.693
N051.09.38.164 W000.10.12.760
N051.09.38.140 W000.10.13.241

;47_48
REGIONNAME Gatwick
smrBuilding N051.09.37.084 W000.10.17.517
N051.09.34.265 W000.10.14.000
N051.09.34.465 W000.10.13.731
N051.09.37.224 W000.10.17.203

;49_50
REGIONNAME Gatwick
smrBuilding N051.09.29.862 W000.10.21.933
N051.09.29.895 W000.10.21.609
N051.09.33.586 W000.10.22.818
N051.09.33.523 W000.10.23.187

;50_51
REGIONNAME Gatwick
smrBuilding N051.09.29.690 W000.10.24.347
N051.09.29.720 W000.10.24.053
N051.09.33.156 W000.10.25.138
N051.09.33.106 W000.10.25.512

;51_52
REGIONNAME Gatwick
smrBuilding N051.09.29.118 W000.10.28.426
N051.09.29.158 W000.10.28.113
N051.09.32.657 W000.10.29.283
N051.09.32.616 W000.10.29.589

;52_53
REGIONNAME Gatwick
smrBuilding N051.09.28.626 W000.10.32.099
N051.09.28.660 W000.10.31.828
N051.09.32.136 W000.10.32.967
N051.09.32.094 W000.10.33.293

;53_54
REGIONNAME Gatwick
smrBuilding N051.09.28.022 W000.10.36.224
N051.09.28.053 W000.10.35.916
N051.09.31.563 W000.10.37.059
N051.09.31.524 W000.10.37.432

;Pier_3
REGIONNAME Gatwick
smrGrey N051.09.33.054 W000.10.02.213
N051.09.33.392 W000.10.03.150
N051.09.33.774 W000.10.05.635
N051.09.33.777 W000.10.06.958
N051.09.33.629 W000.10.08.242
N051.09.33.434 W000.10.09.109
N051.09.33.099 W000.10.10.105
N051.09.32.781 W000.10.10.739
N051.09.32.076 W000.10.11.750
N051.09.31.622 W000.10.12.140
N051.09.31.082 W000.10.12.498
N051.09.30.290 W000.10.12.790
N051.09.29.759 W000.10.12.818
N051.09.25.959 W000.10.11.356
N051.09.25.812 W000.10.11.225
N051.09.25.667 W000.10.11.160
N051.09.25.571 W000.10.11.048
N051.09.25.442 W000.10.10.892
N051.09.25.312 W000.10.10.611
N051.09.25.219 W000.10.10.358
N051.09.25.151 W000.10.10.069
N051.09.25.124 W000.10.09.634
N051.09.25.135 W000.10.09.134
N051.09.25.908 W000.10.03.761
N051.09.26.402 W000.10.00.273
N051.09.27.414 W000.10.00.658
N051.09.27.634 W000.10.00.443
N051.09.27.869 W000.10.00.452
N051.09.27.993 W000.10.00.543
N051.09.30.027 W000.09.59.785

;Pier_3_Building
REGIONNAME Gatwick
smrBuilding N051.09.28.918 W000.10.01.051
N051.09.29.257 W000.10.00.867
N051.09.29.780 W000.10.03.644
N051.09.30.139 W000.10.03.782
N051.09.30.348 W000.10.03.965
N051.09.30.542 W000.10.04.164
N051.09.30.795 W000.10.04.511
N051.09.31.014 W000.10.05.013
N051.09.31.097 W000.10.05.525
N051.09.31.105 W000.10.05.949
N051.09.31.136 W000.10.06.320
N051.09.31.071 W000.10.06.695
N051.09.30.955 W000.10.07.240
N051.09.30.841 W000.10.07.469
N051.09.30.710 W000.10.07.732
N051.09.30.509 W000.10.07.924
N051.09.30.351 W000.10.08.092
N051.09.30.095 W000.10.08.196
N051.09.29.814 W000.10.08.205
N051.09.29.559 W000.10.08.224
N051.09.29.328 W000.10.08.169
N051.09.29.125 W000.10.08.020
N051.09.28.927 W000.10.07.746
N051.09.28.765 W000.10.07.593
N051.09.28.606 W000.10.07.340
N051.09.28.509 W000.10.07.113
N051.09.28.467 W000.10.06.868
N051.09.28.378 W000.10.06.499
N051.09.28.365 W000.10.06.142
N051.09.28.343 W000.10.05.761
N051.09.28.425 W000.10.05.382
N051.09.28.499 W000.10.05.063
N051.09.28.657 W000.10.04.612
N051.09.28.826 W000.10.04.349
N051.09.28.932 W000.10.04.163
N051.09.28.941 W000.10.03.673
N051.09.28.783 W000.10.02.995
N051.09.28.610 W000.10.03.114
N051.09.26.851 W000.09.54.817
N051.09.27.551 W000.09.54.411

;31_32
REGIONNAME Gatwick
smrBuilding N051.09.25.984 W000.10.04.622
N051.09.26.024 W000.10.04.292
N051.09.28.662 W000.10.05.192
N051.09.28.473 W000.10.05.485

;32_33
REGIONNAME Gatwick
smrBuilding N051.09.25.684 W000.10.09.611
N051.09.25.570 W000.10.09.307
N051.09.28.521 W000.10.06.576
N051.09.28.496 W000.10.06.970

;33_34
REGIONNAME Gatwick
smrBuilding N051.09.28.383 W000.10.11.889
N051.09.28.145 W000.10.11.750
N051.09.29.152 W000.10.07.477
N051.09.29.348 W000.10.07.707

;34_35
REGIONNAME Gatwick
smrBuilding N051.09.31.289 W000.10.11.953
N051.09.31.001 W000.10.12.153
N051.09.30.072 W000.10.08.068
N051.09.30.309 W000.10.07.897

;35_36
REGIONNAME Gatwick
smrBuilding N051.09.30.979 W000.10.06.716
N051.09.33.352 W000.10.09.023
N051.09.33.214 W000.10.09.339
N051.09.30.801 W000.10.06.977

;36_37
REGIONNAME Gatwick
REGIONNAME Gatwick
smrBuilding N051.09.30.978 W000.10.05.206
N051.09.33.534 W000.10.04.638
N051.09.33.580 W000.10.05.068
N051.09.31.033 W000.10.05.563

;37_38
REGIONNAME Gatwick
smrBuilding N051.09.31.617 W000.10.01.213
N051.09.31.845 W000.10.01.408
N051.09.30.585 W000.10.04.391
N051.09.30.395 W000.10.04.198

;Pier_2
REGIONNAME Gatwick
smrGrey N051.09.21.755 W000.09.54.647
N051.09.22.030 W000.09.53.926
N051.09.23.805 W000.09.54.575
N051.09.23.812 W000.09.54.864
N051.09.23.842 W000.09.55.099
N051.09.23.856 W000.09.55.341
N051.09.23.906 W000.09.55.546
N051.09.23.911 W000.09.55.736
N051.09.22.224 W000.10.07.915
N051.09.20.869 W000.10.17.639
N051.09.20.652 W000.10.18.312
N051.09.20.362 W000.10.20.454
N051.09.20.331 W000.10.20.545
N051.09.20.262 W000.10.20.544
N051.09.20.160 W000.10.20.530
N051.09.15.715 W000.10.19.093
N051.09.15.572 W000.10.18.966
N051.09.15.492 W000.10.18.891
N051.09.15.446 W000.10.18.713
N051.09.15.361 W000.10.18.463
N051.09.15.428 W000.10.17.897
N051.09.18.763 W000.09.53.589

;Pier_2_Building
REGIONNAME Gatwick
smrBuilding N051.09.21.492 W000.09.55.228
N051.09.21.652 W000.09.55.221
N051.09.19.269 W000.10.12.730
N051.09.18.816 W000.10.15.765
N051.09.18.713 W000.10.16.405
N051.09.18.677 W000.10.16.581
N051.09.18.633 W000.10.16.674
N051.09.18.578 W000.10.16.778
N051.09.18.469 W000.10.16.765
N051.09.17.869 W000.10.16.521
N051.09.17.797 W000.10.16.476
N051.09.17.782 W000.10.16.376
N051.09.17.757 W000.10.16.279
N051.09.20.642 W000.09.55.259
N051.09.20.166 W000.09.55.042
N051.09.20.419 W000.09.52.746
N051.09.21.747 W000.09.53.123

;10_11
REGIONNAME Gatwick
smrBuilding N051.09.20.159 W000.09.57.009
N051.09.20.455 W000.09.57.088
N051.09.20.426 W000.09.57.332
N051.09.19.940 W000.09.57.139
N051.09.19.468 W000.09.56.539
N051.09.18.409 W000.09.56.143
N051.09.18.451 W000.09.55.853
N051.09.19.534 W000.09.56.268

;11_12
REGIONNAME Gatwick
smrBuilding N051.09.19.274 W000.09.58.760
N051.09.18.114 W000.09.58.341
N051.09.18.154 W000.09.58.070
N051.09.19.395 W000.09.58.520
N051.09.20.231 W000.09.59.052
N051.09.20.165 W000.09.59.272

;12_14
REGIONNAME Gatwick
smrBuilding N051.09.19.102 W000.10.01.126
N051.09.18.792 W000.10.00.926
N051.09.17.810 W000.10.00.608
N051.09.17.850 W000.10.00.241
N051.09.18.854 W000.10.00.547
N051.09.19.134 W000.10.00.768
N051.09.19.926 W000.10.01.010
N051.09.19.870 W000.10.01.392

;14_16
REGIONNAME Gatwick
smrBuilding N051.09.17.544 W000.10.02.545
N051.09.19.577 W000.10.03.151
N051.09.19.575 W000.10.03.437
N051.09.17.501 W000.10.02.795

;16_18
REGIONNAME Gatwick
smrBuilding N051.09.17.250 W000.10.04.738
N051.09.18.354 W000.10.05.058
N051.09.19.278 W000.10.05.750
N051.09.19.274 W000.10.05.980
N051.09.18.871 W000.10.05.843
N051.09.18.316 W000.10.05.405
N051.09.17.201 W000.10.05.074

;18_20
REGIONNAME Gatwick
smrBuilding N051.09.16.944 W000.10.07.007
N051.09.19.066 W000.10.07.581
N051.09.19.071 W000.10.07.773
N051.09.16.925 W000.10.07.182

;20_22
REGIONNAME Gatwick
smrBuilding N051.09.16.650 W000.10.09.219
N051.09.18.724 W000.10.09.779
N051.09.18.750 W000.10.10.053
N051.09.16.622 W000.10.09.456

;22_24
REGIONNAME Gatwick
smrBuilding N051.09.16.338 W000.10.11.362
N051.09.17.264 W000.10.11.627
N051.09.17.921 W000.10.11.992
N051.09.18.406 W000.10.12.142
N051.09.18.437 W000.10.12.523
N051.09.17.865 W000.10.12.289
N051.09.17.188 W000.10.11.919
N051.09.16.295 W000.10.11.659

;24_28
REGIONNAME Gatwick
smrBuilding N051.09.16.042 W000.10.13.678
N051.09.18.207 W000.10.14.250
N051.09.18.256 W000.10.14.501
N051.09.15.996 W000.10.13.855

;28_27
REGIONNAME Gatwick
smrBuilding N051.09.15.741 W000.10.15.754
N051.09.17.921 W000.10.16.438
N051.09.17.911 W000.10.16.646
N051.09.15.706 W000.10.15.989

;27_25
REGIONNAME Gatwick
smrBuilding N051.09.18.150 W000.10.19.861
N051.09.17.772 W000.10.19.716
N051.09.18.241 W000.10.16.500
N051.09.18.593 W000.10.16.725

;13_15
REGIONNAME Gatwick
smrBuilding N051.09.21.146 W000.09.58.332
N051.09.21.194 W000.09.57.967
N051.09.23.495 W000.09.58.792
N051.09.23.437 W000.09.59.133

;15_17
REGIONNAME Gatwick
smrBuilding N051.09.21.700 W000.10.02.203
N051.09.20.864 W000.10.00.783
N051.09.20.916 W000.10.00.375
N051.09.21.807 W000.10.02.001
N051.09.22.983 W000.10.02.425
N051.09.22.952 W000.10.02.662

;17_19
REGIONNAME Gatwick
smrBuilding N051.09.20.163 W000.10.05.672
N051.09.22.441 W000.10.06.456
N051.09.22.362 W000.10.06.941
N051.09.20.085 W000.10.06.196

;19_21
REGIONNAME Gatwick
smrBuilding N051.09.19.618 W000.10.09.979
N051.09.19.652 W000.10.09.715
N051.09.21.881 W000.10.10.464
N051.09.21.859 W000.10.10.721

;21_23
REGIONNAME Gatwick
smrBuilding N051.09.19.168 W000.10.13.202
N051.09.21.392 W000.10.13.934
N051.09.21.346 W000.10.14.242
N051.09.19.145 W000.10.13.528

;23_25
REGIONNAME Gatwick
smrBuilding N051.09.18.558 W000.10.16.933
N051.09.18.618 W000.10.16.560
N051.09.20.913 W000.10.17.383
N051.09.20.871 W000.10.17.700

;Pier_1
REGIONNAME Gatwick
smrGrey N051.09.16.332 W000.09.53.461
N051.09.15.529 W000.09.59.638
N051.09.15.398 W000.10.00.138
N051.09.15.083 W000.10.00.266
N051.09.13.534 W000.09.59.750
N051.09.14.479 W000.09.52.856

;7_9
REGIONNAME Gatwick
smrBuilding N051.09.14.048 W000.09.56.025
N051.09.15.902 W000.09.56.717
N051.09.15.874 W000.09.57.077
N051.09.13.970 W000.09.56.384

;South_Maintenance_Disused1
REGIONNAME Gatwick
smrGrey N051.08.53.753 W000.10.13.976
N051.08.54.034 W000.10.14.071
N051.08.54.291 W000.10.14.126
N051.08.54.541 W000.10.13.815
N051.08.54.866 W000.10.12.702
N051.08.53.940 W000.10.19.545
N051.08.53.847 W000.10.19.167
N051.08.53.566 W000.10.18.891
N051.08.53.090 W000.10.18.660

;South_Maintenance_Disused2
REGIONNAME Gatwick
smrGrey N051.08.54.496 W000.10.07.210
N051.08.54.627 W000.10.07.302
N051.08.54.507 W000.10.08.733
N051.08.54.984 W000.10.08.840
N051.08.55.311 W000.10.08.709
N051.08.55.523 W000.10.08.124
N051.08.55.158 W000.10.10.655
N051.08.55.035 W000.10.10.050
N051.08.54.786 W000.10.09.864
N051.08.54.428 W000.10.09.717
N051.08.54.211 W000.10.09.645

;South_Maintenance_Disused3
REGIONNAME Gatwick
smrGrey N051.08.55.087 W000.10.00.280
N051.08.55.209 W000.10.00.566
N051.08.55.436 W000.10.00.992
N051.08.55.692 W000.10.01.061
N051.08.55.986 W000.10.01.080
N051.08.56.217 W000.10.00.976
N051.08.56.441 W000.10.00.544
N051.08.56.664 W000.09.59.819
N051.08.55.963 W000.10.05.409
N051.08.55.913 W000.10.03.192
N051.08.55.746 W000.10.02.895
N051.08.55.226 W000.10.02.580
N051.08.54.930 W000.10.02.681
N051.08.54.567 W000.10.03.232

;South_Maintenance_Disused4
REGIONNAME Gatwick
smrGrey N051.08.56.062 W000.09.56.433
N051.08.56.681 W000.09.56.429
N051.08.56.995 W000.09.56.347
N051.08.57.234 W000.09.55.450
N051.08.56.714 W000.09.59.068
N051.08.56.607 W000.09.58.320
N051.08.56.315 W000.09.57.951
N051.08.55.946 W000.09.57.648
N051.08.55.387 W000.09.58.329

;South_Maintenance_Disused5
REGIONNAME Gatwick
smrGrey N051.08.57.515 W000.09.49.641
N051.08.57.567 W000.09.49.967
N051.08.58.235 W000.09.49.802
N051.08.57.747 W000.09.52.171
N051.08.57.674 W000.09.51.457
N051.08.57.513 W000.09.51.089
N051.08.56.990 W000.09.50.854

;Near_Tower1
REGIONNAME Gatwick
smrBuilding N051.09.13.598 W000.11.04.799
N051.09.13.633 W000.11.04.421
N051.09.13.974 W000.11.04.540
N051.09.13.885 W000.11.04.951

;Tower
REGIONNAME Gatwick
smrBuilding N051.09.15.338 W000.11.02.500
N051.09.15.291 W000.11.02.250
N051.09.15.179 W000.11.02.833
N051.09.14.796 W000.11.02.674
N051.09.14.897 W000.11.01.931
N051.09.15.292 W000.11.02.120
N051.09.15.344 W000.11.01.983
N051.09.15.455 W000.11.01.762
N051.09.15.549 W000.11.01.665
N051.09.15.710 W000.11.01.670
N051.09.15.774 W000.11.01.796
N051.09.15.824 W000.11.02.020
N051.09.15.822 W000.11.02.279
N051.09.15.795 W000.11.02.477
N051.09.15.670 W000.11.02.563
N051.09.15.563 W000.11.02.630

;Ops_Building
REGIONNAME Gatwick
smrBuilding N051.09.08.460 W000.11.06.030
N051.09.08.657 W000.11.04.594
N051.09.09.075 W000.11.04.740
N051.09.08.894 W000.11.06.182

;Fire_Station
REGIONNAME Gatwick
smrBuilding N051.09.08.932 W000.11.03.054
N051.09.08.972 W000.11.02.525
N051.09.09.272 W000.11.00.326
N051.09.09.372 W000.10.59.585
N051.09.10.635 W000.10.59.972
N051.09.10.550 W000.11.00.720
N051.09.09.852 W000.11.00.476
N051.09.09.517 W000.11.02.690
N051.09.10.223 W000.11.02.989
N051.09.10.122 W000.11.03.497

;Main_2_Building12
REGIONNAME Gatwick
smrBuilding N051.09.10.194 W000.11.24.263
N051.09.10.217 W000.11.23.931
N051.09.10.459 W000.11.23.992
N051.09.10.428 W000.11.24.333

;Main_2_Building11
REGIONNAME Gatwick
smrBuilding N051.09.06.418 W000.11.27.150
N051.09.06.462 W000.11.26.776
N051.09.06.831 W000.11.26.916
N051.09.06.775 W000.11.27.322

;Main_2_Building10
REGIONNAME Gatwick
smrBuilding N051.09.07.868 W000.11.33.353
N051.09.07.913 W000.11.33.137
N051.09.08.233 W000.11.33.248
N051.09.08.214 W000.11.33.496

;Main_2_Building9
REGIONNAME Gatwick
smrBuilding N051.09.09.154 W000.11.29.750
N051.09.09.242 W000.11.29.114
N051.09.09.551 W000.11.29.247
N051.09.09.455 W000.11.29.881

;Main_2_Building8
REGIONNAME Gatwick
smrBuilding N051.09.10.295 W000.11.30.188
N051.09.10.382 W000.11.29.441
N051.09.10.592 W000.11.29.515
N051.09.10.503 W000.11.30.273

;Main_2_Building7
REGIONNAME Gatwick
smrBuilding N051.09.10.637 W000.11.30.295
N051.09.10.733 W000.11.29.649
N051.09.11.163 W000.11.29.789
N051.09.11.077 W000.11.30.461

;Main_2_Building6
REGIONNAME Gatwick
smrBuilding N051.09.09.087 W000.11.30.893
N051.09.09.135 W000.11.30.545
N051.09.09.997 W000.11.30.859
N051.09.10.062 W000.11.30.882
N051.09.10.064 W000.11.30.810
N051.09.10.643 W000.11.31.023
N051.09.10.586 W000.11.31.439

;Main_2_Building5
REGIONNAME Gatwick
smrBuilding N051.09.08.837 W000.11.33.680
N051.09.08.960 W000.11.32.816
N051.09.08.679 W000.11.32.696
N051.09.08.618 W000.11.33.079
N051.09.08.219 W000.11.32.942
N051.09.08.435 W000.11.31.499
N051.09.08.344 W000.11.31.453
N051.09.08.397 W000.11.31.105
N051.09.08.653 W000.11.31.201
N051.09.08.615 W000.11.31.459
N051.09.09.290 W000.11.31.689
N051.09.09.332 W000.11.31.357
N051.09.09.765 W000.11.31.521
N051.09.09.699 W000.11.32.028
N051.09.09.820 W000.11.32.070
N051.09.09.652 W000.11.33.317
N051.09.10.172 W000.11.33.499
N051.09.10.087 W000.11.34.111

;Main_2_Building4
REGIONNAME Gatwick
smrBuilding N051.09.09.971 W000.11.26.735
N051.09.10.101 W000.11.25.723
N051.09.11.049 W000.11.26.024
N051.09.10.934 W000.11.27.007

;Main_2_Building2
REGIONNAME Gatwick
smrBuilding N051.09.05.379 W000.11.24.608
N051.09.05.635 W000.11.22.616
N051.09.05.907 W000.11.22.695
N051.09.05.852 W000.11.23.092
N051.09.06.451 W000.11.23.321
N051.09.06.241 W000.11.24.912

;Main_2_Building1
REGIONNAME Gatwick
smrBuilding N051.09.06.508 W000.11.26.348
N051.09.06.650 W000.11.25.341
N051.09.07.392 W000.11.25.633
N051.09.07.725 W000.11.23.204
N051.09.08.672 W000.11.23.582
N051.09.08.398 W000.11.25.892
N051.09.09.383 W000.11.26.286
N051.09.09.281 W000.11.27.355

;Construction_Pier_1
REGIONNAME Gatwick
smrKKRed N051.09.12.180 W000.09.51.531
N051.09.11.191 W000.09.58.702
N051.09.10.249 W000.09.58.275
N051.09.12.313 W000.09.43.591
N051.09.17.596 W000.09.45.469
N051.09.16.571 W000.09.52.996