;-MANCHESTER HOLDING POINTS
N053.20.45.304:W002.17.34.181:EGCC Holding Points:A1
N053.20.50.831:W002.17.36.259:EGCC Holding Points:A2
N053.20.58.138:W002.17.22.867:EGCC Holding Points:A3
N053.21.07.403:W002.17.04.355:EGCC Holding Points:A4
N053.21.21.494:W002.16.48.899:EGCC Holding Points:A5
N053.21.28.381:W002.16.45.800:EGCC Holding Points:A6
N053.20.56.011:W002.17.15.166:EGCC Holding Points:AF1
N053.20.50.579:W002.17.23.747:EGCC Holding Points:AG1
N053.21.05.481:W002.16.53.593:EGCC Holding Points:B1
N053.21.07.669:W002.16.57.845:EGCC Holding Points:B2
N053.21.12.455:W002.16.49.328:EGCC Holding Points:B3
N053.21.23.266:W002.16.36.193:EGCC Holding Points:B4
N053.21.25.599:W002.16.32.060:EGCC Holding Points:B5
N053.21.27.342:W002.16.27.853:EGCC Holding Points:B6
N053.21.29.817:W002.16.21.087:EGCC Holding Points:B7
N053.21.09.400:W002.16.52.778:EGCC Holding Points:BD
N053.20.59.727:W002.16.47.032:EGCC Holding Points:BZ1
N053.21.19.530:W002.16.43.612:EGCC Holding Points:C1
N053.21.25.612:W002.16.40.326:EGCC Holding Points:C2
N053.21.19.180:W002.16.25.146:EGCC Holding Points:D1
N053.21.20.336:W002.16.26.709:EGCC Holding Points:D2
N053.21.23.151:W002.16.30.257:EGCC Holding Points:D3
N053.21.26.067:W002.16.33.721:EGCC Holding Points:D4
N053.21.28.620:W002.16.40.308:EGCC Holding Points:D5
N053.21.35.305:W002.16.39.591:EGCC Holding Points:D6
N053.21.46.509:W002.16.47.190:EGCC Holding Points:D7
N053.21.52.614:W002.16.44.733:EGCC Holding Points:D8
N053.21.12.472:W002.16.23.200:EGCC Holding Points:DZ1
N053.21.24.271:W002.16.16.271:EGCC Holding Points:F1
N053.21.25.157:W002.16.16.861:EGCC Holding Points:F2
N053.21.27.630:W002.16.19.443:EGCC Holding Points:F3
N053.21.18.314:W002.16.08.317:EGCC Holding Points:FZ1
N053.21.29.500:W002.16.04.400:EGCC Holding Points:G1
N053.21.30.783:W002.16.05.515:EGCC Holding Points:G2
N053.21.33.866:W002.16.10.367:EGCC Holding Points:G3
N053.21.39.052:W002.16.01.057:EGCC Holding Points:G4
N053.21.40.761:W002.15.55.494:EGCC Holding Points:G5
N053.21.38.730:W002.15.55.152:EGCC Holding Points:G6
N053.21.31.315:W002.15.59.518:EGCC Holding Points:H1
N053.21.33.127:W002.16.00.062:EGCC Holding Points:H2
N053.21.35.829:W002.16.01.785:EGCC Holding Points:H3
N053.21.22.787:W002.15.56.941:EGCC Holding Points:HZ1
N053.21.47.246:W002.15.30.194:EGCC Holding Points:J1
N053.21.47.445:W002.15.39.317:EGCC Holding Points:J2
N053.21.44.000:W002.15.43.425:EGCC Holding Points:J3
N053.21.37.729:W002.15.52.044:EGCC Holding Points:J4
N053.21.33.454:W002.16.05.478:EGCC Holding Points:J5
N053.21.28.912:W002.16.16.787:EGCC Holding Points:J6
N053.21.40.728:W002.15.40.213:EGCC Holding Points:JA1
N053.21.28.073:W002.16.08.460:EGCC Holding Points:JB
N053.21.42.821:W002.15.37.614:EGCC Holding Points:JS1
N053.21.25.738:W002.16.17.181:EGCC Holding Points:K1
N053.21.24.322:W002.16.21.566:EGCC Holding Points:K2
N053.21.21.957:W002.16.26.378:EGCC Holding Points:K3
N053.21.19.683:W002.16.30.813:EGCC Holding Points:K4
N053.21.18.214:W002.16.34.769:EGCC Holding Points:K5
N053.21.14.600:W002.16.38.580:EGCC Holding Points:KC
N053.21.31.050:W002.16.33.217:EGCC Holding Points:L1
N053.21.45.393:W002.16.52.712:EGCC Holding Points:N1
N053.21.58.164:W002.17.13.880:EGCC Holding Points:N3
N053.21.58.593:W002.17.06.900:EGCC Holding Points:NA1
N053.21.39.200:W002.16.47.795:EGCC Holding Points:Q1
N053.21.03.759:W002.16.28.196:EGCC Holding Points:S1
N053.21.03.581:W002.16.20.527:EGCC Holding Points:T1
N053.20.54.671:W002.16.41.036:EGCC Holding Points:U1
N053.20.56.000:W002.16.42.932:EGCC Holding Points:U2
N053.21.16.250:W002.16.04.400:EGCC Holding Points:V1
N053.21.10.500:W002.16.15.995:EGCC Holding Points:V3
N053.21.09.038:W002.16.25.894:EGCC Holding Points:V4
N053.21.05.897:W002.16.32.365:EGCC Holding Points:V5
N053.21.00.854:W002.16.43.298:EGCC Holding Points:V6
N053.20.56.850:W002.16.51.350:EGCC Holding Points:V6
N053.21.00.733:W002.16.28.082:EGCC Holding Points:VA1
N053.21.01.500:W002.16.34.800:EGCC Holding Points:VA2
N053.20.57.487:W002.16.34.814:EGCC Holding Points:VB1
N053.21.00.300:W002.16.36.150:EGCC Holding Points:VB2
N053.20.50.303:W002.16.52.074:EGCC Holding Points:VC1
N053.20.52.088:W002.16.50.711:EGCC Holding Points:VC2
N053.20.44.059:W002.17.04.606:EGCC Holding Points:VD1
N053.20.45.922:W002.17.03.524:EGCC Holding Points:VD2
N053.19.57.819:W002.18.45.741:EGCC Holding Points:Y1
N053.20.05.285:W002.18.38.039:EGCC Holding Points:W2
N053.20.04.027:W002.18.28.383:EGCC Holding Points:W1
N053.21.12.859:W002.16.43.471:EGCC Holding Points:TATON
N053.21.16.121:W002.16.49.517:EGCC Holding Points:ROMPA
;- EGCC Stands
N053.21.39.300:W002.16.25.420:EGCC Stands:1
N053.21.38.770:W002.16.29.890:EGCC Stands:2
N053.21.38.210:W002.16.26.970:EGCC Stands:3
N053.21.37.100:W002.16.29.720:EGCC Stands:4
N053.21.36.630:W002.16.26.850:EGCC Stands:5
N053.21.35.220:W002.16.29.540:EGCC Stands:6
N053.21.35.400:W002.16.27.330:EGCC Stands:7
N053.21.33.470:W002.16.30.040:EGCC Stands:8
N053.21.33.770:W002.16.27.440:EGCC Stands:9
N053.21.31.730:W002.16.30.160:EGCC Stands:10
N053.21.32.250:W002.16.27.500:EGCC Stands:11
N053.21.30.770:W002.16.30.260:EGCC Stands:12
N053.21.30.760:W002.16.28.790:EGCC Stands:14
N053.21.30.980:W002.16.27.350:EGCC Stands:15
N053.21.39.290:W002.16.22.990:EGCC Stands:16
N053.21.39.210:W002.16.20.900:EGCC Stands:17
N053.21.39.250:W002.16.18.000:EGCC Stands:18
N053.21.40.680:W002.16.30.840:EGCC Stands:21
N053.21.43.850:W002.16.34.460:EGCC Stands:22
N053.21.42.120:W002.16.34.040:EGCC Stands:23
N053.21.44.490:W002.16.37.140:EGCC Stands:24
N053.21.42.480:W002.16.36.900:EGCC Stands:25
N053.21.44.740:W002.16.39.990:EGCC Stands:26
N053.21.42.830:W002.16.38.800:EGCC Stands:27
N053.21.45.900:W002.16.42.400:EGCC Stands:28
N053.21.43.470:W002.16.43.170:EGCC Stands:29
N053.21.44.580:W002.16.44.840:EGCC Stands:31
N053.21.45.730:W002.16.43.950:EGCC Stands:32
N053.21.37.930:W002.16.16.220:EGCC Stands:41
N053.21.36.080:W002.16.15.750:EGCC Stands:42
N053.21.34.200:W002.16.15.730:EGCC Stands:43
N053.21.33.030:W002.16.15.000:EGCC Stands:44
N053.21.32.080:W002.16.15.910:EGCC Stands:45
N053.21.32.190:W002.16.14.690:EGCC Stands:46
N053.21.32.530:W002.16.13.600:EGCC Stands:47
N053.21.33.420:W002.16.12.630:EGCC Stands:48
N053.21.35.400:W002.16.12.420:EGCC Stands:49
N053.21.37.040:W002.16.09.760:EGCC Stands:50
N053.21.37.840:W002.16.08.370:EGCC Stands:51
N053.21.38.720:W002.16.07.070:EGCC Stands:52
N053.21.39.450:W002.16.05.160:EGCC Stands:53
N053.21.40.810:W002.16.03.650:EGCC Stands:54
N053.21.42.160:W002.16.01.110:EGCC Stands:55
N053.21.42.165:W002.15.56.950:EGCC Stands:56
N053.21.42.785:W002.15.54.550:EGCC Stands:57
N053.21.43.669:W002.15.51.956:EGCC Stands:58
N053.21.32.330:W002.16.48.460:EGCC Stands:60
N053.21.34.750:W002.16.48.160:EGCC Stands:61
N053.21.36.770:W002.16.48.200:EGCC Stands:62
N053.21.37.910:W002.16.50.290:EGCC Stands:63
N053.21.39.640:W002.16.53.140:EGCC Stands:64
N053.21.41.600:W002.16.55.600:EGCC Stands:65
N053.21.43.390:W002.16.59.640:EGCC Stands:66
N053.21.45.340:W002.17.02.670:EGCC Stands:67
N053.21.47.070:W002.17.06.030:EGCC Stands:68
N053.21.49.070:W002.17.08.960:EGCC Stands:69
N053.21.50.940:W002.17.12.110:EGCC Stands:70
N053.21.52.810:W002.17.15.260:EGCC Stands:71
N053.21.54.570:W002.17.19.710:EGCC Stands:72
N053.21.56.440:W002.17.23.080:EGCC Stands:73
N053.21.58.380:W002.17.26.300:EGCC Stands:74
N053.21.49.850:W002.16.53.020:EGCC Stands:80
N053.21.51.490:W002.16.56.290:EGCC Stands:81
N053.21.53.380:W002.16.59.400:EGCC Stands:82
N053.21.55.230:W002.17.02.580:EGCC Stands:83
N053.21.57.090:W002.17.05.730:EGCC Stands:84
N053.22.00.740:W002.17.12.650:EGCC Stands:85
N053.22.02.670:W002.17.15.880:EGCC Stands:86
N053.21.49.810:W002.16.32.690:EGCC Stands:200
N053.21.50.610:W002.16.34.800:EGCC Stands:201
N053.21.51.030:W002.16.36.060:EGCC Stands:202
N053.21.52.150:W002.16.38.060:EGCC Stands:203
N053.21.53.270:W002.16.39.360:EGCC Stands:204
N053.21.54.250:W002.16.41.600:EGCC Stands:205
N053.21.55.330:W002.16.43.100:EGCC Stands:206
N053.21.56.350:W002.16.45.120:EGCC Stands:207
N053.21.57.330:W002.16.46.630:EGCC Stands:208
N053.21.58.450:W002.16.48.650:EGCC Stands:209
N053.21.59.530:W002.16.50.000:EGCC Stands:210
N053.22.00.540:W002.16.52.190:EGCC Stands:211
N053.22.01.610:W002.16.53.550:EGCC Stands:212
N053.22.02.630:W002.16.55.730:EGCC Stands:213
N053.22.03.720:W002.16.57.060:EGCC Stands:214
N053.22.04.890:W002.16.58.840:EGCC Stands:215
N053.22.06.480:W002.17.01.310:EGCC Stands:216
N053.22.07.610:W002.17.03.200:EGCC Stands:217
N053.22.08.890:W002.17.05.360:EGCC Stands:218
N053.22.10.050:W002.17.07.330:EGCC Stands:219
N053.21.50.580:W002.16.50.740:EGCC Stands:231
N053.21.52.540:W002.16.54.050:EGCC Stands:233
N053.21.53.660:W002.16.55.920:EGCC Stands:235
N053.21.54.820:W002.16.57.880:EGCC Stands:237
N053.21.56.230:W002.17.00.260:EGCC Stands:239
N053.21.57.570:W002.17.02.000:EGCC Stands:241
N053.21.58.530:W002.17.03.610:EGCC Stands:243
N053.22.02.190:W002.17.10.570:EGCC Stands:245
N053.22.03.450:W002.17.12.710:EGCC Stands:247
N053.22.04.720:W002.17.14.850:EGCC Stands:249
N053.22.05.820:W002.17.15.660:EGCC Stands:251