CIRCLE_SECTORLINE:LLTWR:EGLL:2.5
DISPLAY:LLFIN_W:LLFIN_W:LLDEP
DISPLAY:LLDEP:LLFIN_W:LLDEP
DISPLAY:LLFIN_E:LLFIN_E:LLDEP
DISPLAY:LLDEP:LLFIN_E:LLDEP
DISPLAY:LLFIN_W:LLFIN_W:LLARR
DISPLAY:LLARR:LLFIN_W:LLARR
DISPLAY:LLFIN_E:LLFIN_E:LLARR
DISPLAY:LLARR:LLFIN_E:LLARR

SECTORLINE:LLFIN_W
DISPLAY:LLNTH_W:LLNTH_W:LLFIN_W
DISPLAY:LLFIN_W:LLNTH_W:LLFIN_W
DISPLAY:LLSTH_W:LLSTH_W:LLFIN_W
DISPLAY:LLFIN_W:LLSTH_W:LLFIN_W
COORD:N051.36.7.509:W0.27.37.493
COORD:N051.36.11.002:W000.12.52.999
COORD:N051.35.23.307:W000.11.47.496
COORD:N051.34.31.419:W000.10.50.672
COORD:N051.33.36.643:W000.10.01.324
COORD:N051.32.39.397:W000.09.19.827
COORD:N051.31.40.115:W000.08.46.499
COORD:N051.30.39.250:W000.08.21.591
COORD:N051.29.37.263:W000.08.05.294
COORD:N051.28.34.628:W000.07.57.732
COORD:N051.27.31.821:W000.07.58.962
COORD:N051.26.29.320:W000.08.08.975
COORD:N051.25.27.600:W000.08.27.695
COORD:N051.24.27.131:W000.08.54.979
COORD:N051.23.28.373:W000.09.30.619
COORD:N051.22.31.775:W000.10.14.345
COORD:N051.21.37.765:W000.11.05.824
COORD:N051.20.46.756:W000.12.04.663
COORD:N051.20.12.998:W000.12.55.001
COORD:N051.20.14.772:W000.27.58.632
COORD:N051.36.7.509:W0.27.37.493

SECTORLINE:LLNTH_W
DISPLAY:LLNTH_W:London TC SE:LLNTH_W
COORD:N051.28.39.000:W000.27.41.000
COORD:N051.43.34.000:W000.32.59.000
COORD:N051.38.48.000:W000.16.40.000
COORD:N051.38.47.311:W000.07.58.410
COORD:N051.38.46.000:E000.09.06.000
COORD:N051.30.19.000:E000.03.16.000
COORD:N051.28.25.344:E000.03.1.283

SECTORLINE:LLNTH_STH_W
DISPLAY:LLNTH_W:LLNTH_W:LLSTH_W
DISPLAY:LLSTH_W:LLNTH_W:LLSTH_W
COORD:N051.28.25.344:E000.03.1.283
COORD:N051.28.39.000:W000.27.41.000

SECTORLINE:LLSTH_W
DISPLAY:LLSTH_W:London TC SE:LLSTH_W
COORD:N051.28.25.344:E000.03.1.283
COORD:N051.19.51.000:E000.02.05.000
COORD:N051.20.13.000:W000.12.55.000
COORD:N051.19.10.000:W000.22.19.000
COORD:N051.18.18.000:W000.26.45.000
COORD:N051.28.39.000:W000.27.41.000

SECTORLINE:LLFIN_E
DISPLAY:LLNTH_E:LLNTH_E:LLFIN_E
DISPLAY:LLSTH_E:LLSTH_E:LLFIN_E
DISPLAY:LLFIN_E:LLNTH_E:LLFIN_E
DISPLAY:LLFIN_E:LLSTH_E:LLFIN_E
COORD:N051.36.7.509:W0.27.37.493
COORD:N051.20.14.772:W000.27.58.632
COORD:N051.20.12.998:W000.37.59.999
COORD:N051.21.05.479:W000.42.38.812
COORD:N051.21.55.954:W000.43.38.665
COORD:N051.22.50.898:W000.44.27.528
COORD:N051.23.48.286:W000.45.08.518
COORD:N051.24.47.681:W000.45.41.322
COORD:N051.25.48.631:W000.46.05.692
COORD:N051.26.50.672:W000.46.21.441
COORD:N051.27.53.332:W000.46.28.450
COORD:N051.28.56.134:W000.46.26.665
COORD:N051.29.58.601:W000.46.16.100
COORD:N051.31.00.255:W000.45.56.835
COORD:N051.32.00.630:W000.45.29.017
COORD:N051.32.59.264:W000.44.52.858
COORD:N051.33.55.712:W000.44.08.633
COORD:N051.34.49.544:W000.43.16.678
COORD:N051.35.40.351:W000.42.17.389
COORD:N051.36.11.009:W000.41.33.022
COORD:N051.36.7.509:W0.27.37.493

SECTORLINE:LLNTH_E
DISPLAY:LLNTH_E:London TC SE:LLNTH_E
COORD:N051.28.23.066:W001.00.1.883
COORD:N051.32.00.000:W001.00.00.000
COORD:N051.43.34.000:W000.32.59.000
COORD:N051.38.46.000:W000.27.41.000
COORD:N051.38.46.000:E000.09.06.000
COORD:N051.28.39.000:W000.27.41.000

SECTORLINE:LLSTH_E
DISPLAY:LLSTH_E:London TC SE:LLSTH_E
COORD:N051.28.39.000:W000.27.41.000
COORD:N051.19.51.000:E000.02.05.000
COORD:N051.18.18.000:W000.26.45.000
COORD:N051.18.18.000:W000.55.54.000
COORD:N051.24.30.000:W001.00.00.000
COORD:N051.28.23.066:W001.00.1.883

SECTORLINE:LLNTH_STH_E
DISPLAY:LLNTH_E:LLNTH_E:LLSTH_E
DISPLAY:LLSTH_E:LLNTH_E:LLSTH_E
COORD:N051.28.23.066:W001.00.1.883
COORD:N051.28.39.000:W000.27.41.000

CIRCLE_SECTORLINE:Only LLGND:EGLL:1.5
DISPLAY:London TC NW:Only LLGND 1:Only LLGND 2
DISPLAY:London TC NE:Only LLGND 1:Only LLGND 2
DISPLAY:London TC SW:Only LLGND 1:Only LLGND 2
DISPLAY:London TC SE:Only LLGND 1:Only LLGND 2

CIRCLE_SECTORLINE:Only LLTWR:EGLL:2.5
DISPLAY:London TC NW:Only LLTWR 1:Only LLTWR 2
DISPLAY:London TC NE:Only LLTWR 1:Only LLTWR 2
DISPLAY:London TC SW:Only LLTWR 1:Only LLTWR 2
DISPLAY:London TC SE:Only LLTWR 1:Only LLTWR 2

CIRCLE_SECTORLINE:Only LLAPP:EGLL:5
DISPLAY:London TC NW:London TC NW:Only LLAPP
DISPLAY:London TC NE:London TC NE:Only LLAPP
DISPLAY:London TC SW:London TC SW:Only LLAPP
DISPLAY:London TC SE:London TC SE:Only LLAPP

SECTORLINE:GMC1
DISPLAY:GMC1:GMC1:LLAIRN
DISPLAY:GMC1:GMC1:LLAIRS
DISPLAY:LLAIRN:LLAIRN:GMC1
DISPLAY:LLAIRS:LLAIRS:GMC1
COORD:N051.28.35.822:W000.28.15.666 ;A10W CORNER
COORD:N051.28.36.067:W000.26.17.417 ;PLUTO N CORNER
COORD:N051.28.31.375:W000.26.17.109 ;PLUTO S CORNER
COORD:N051.28.30.468:W000.26.11.924 ;TITAN CORNER
COORD:N051.28.20.319:W000.26.11.963 ;SATUN W CORNER
COORD:N051.28.20.430:W000.26.06.730 ;SATUN E CORNER
COORD:N051.28.34.206:W000.25.49.271 ;AY1 CORNER
COORD:N051.28.32.035:W000.25.43.381 ;M1 CORNER
COORD:N051.28.11.451:W000.26.06.657 ;MORRA CORNER
COORD:N051.28.11.281:W000.26.17.787 ;NEVIS CORNER
COORD:N051.28.04.803:W000.26.17.975 ;ETTIV E CORNER
COORD:N051.28.04.921:W000.26.34.888 ;ETTIV W CORNER
;COORD:N051.28.10.979:W000.26.22.035 ;ETTIV N CORNER
;COORD:N051.28.08.641:W000.26.25.689 ;ETTIV S CORNER
;COORD:N051.28.04.777:W000.26.25.028 ;LOKKI CORNER

SECTORLINE:GMC2_SOUTH
DISPLAY:GMC2_SOUTH:GMC2_SOUTH:LLAIRN
DISPLAY:GMC2_SOUTH:GMC2_SOUTH:LLAIRS
DISPLAY:LLAIRN:LLAIRN:GMC2_SOUTH
DISPLAY:LLAIRS:LLAIRS:GMC2_SOUTH
COORD:N051.27.43.280:W000.29.16.574 ;S11 S CORNER
COORD:N051.27.49.742:W000.29.04.526 ;S11 N CORNER
COORD:N051.27.50.004:W000.26.11.075 ;S1N CORNER
COORD:N051.27.38.585:W000.26.10.555 ;S1S CORNER
COORD:N051.27.21.519:W000.27.02.945 ;T4 CORNER
COORD:N051.27.43.280:W000.29.16.574 ;S11 S CORNER

SECTORLINE:GMC2_NORTH
DISPLAY:GMC2_NORTH:GMC2_NORTH:LLAIRN
DISPLAY:GMC2_NORTH:GMC2_NORTH:LLAIRS
DISPLAY:LLAIRN:LLAIRN:GMC2_NORTH
DISPLAY:LLAIRS:LLAIRS:GMC2_NORTH
COORD:N051.28.04.921:W000.26.34.888 ;ETTIV W CORNER
COORD:N051.27.58.248:W000.26.34.827 ;N3 W CORNER
COORD:N051.27.57.770:W000.28.10.315 ;N6 W CORNER
;COORD:N051.28.04.777:W000.26.25.028 ;LOKKI CORNER
;COORD:N051.27.58.321:W000.26.24.987 ;N3 CORNER
;COORD:N051.27.57.564:W000.28.15.030 ;N6 CORNER

SECTORLINE:GMC3
DISPLAY:GMC3:GMC3:LLAIRN
DISPLAY:GMC3:GMC3:LLAIRS
DISPLAY:LLAIRN:LLAIRN:GMC3
DISPLAY:LLAIRS:LLAIRS:GMC3
COORD:N051.28.35.822:W000.28.15.666 ;A10W CORNER
COORD:N051.28.35.757:W000.29.26.769 ;A13 CORNER
COORD:N051.28.04.364:W000.29.22.398 ;524 CORNER
COORD:N051.28.04.647:W000.28.51.254 ;OSTER CORNER
COORD:N051.27.57.456:W000.28.51.143 ;HORKA CORNER
COORD:N051.27.57.770:W000.28.10.315 ;N6 W CORNER
;COORD:N051.27.57.564:W000.28.15.030 ;N6 CORNER

SECTORLINE:GMC3_GMC2
DISPLAY:GMC3:GMC3:GMC2_NORTH
DISPLAY:GMC2_NORTH:GMC2_NORTH:GMC3
;COORD:N051.27.57.564:W000.28.15.030 ;N6 CORNER
COORD:N051.27.57.770:W000.28.10.315 ;N6 W CORNER
COORD:N051.28.07.514:W000.28.09.711 ;583 590 a CORNER
COORD:N051.28.07.609:W000.28.15.145 ;583 590 b CORNER
COORD:N051.28.26.523:W000.28.15.205 ;E2 W CORNER

SECTORLINE:GMC3_GMC1
DISPLAY:GMC3:GMC3:GMC1
DISPLAY:GMC1:GMC1:GMC3
COORD:N051.28.26.523:W000.28.15.205 ;E2 CORNER
COORD:N051.28.35.822:W000.28.15.666 ;A10W CORNER

SECTORLINE:GMC1_GMC2
DISPLAY:GMC1:GMC1:GMC2_NORTH
DISPLAY:GMC2_NORTH:GMC2_NORTH:GMC1
COORD:N051.28.04.921:W000.26.34.888 ;ETTIV W CORNER
COORD:N051.28.19.611:W000.26.35.443 ;T2B CORNER
COORD:N051.28.15.312:W000.26.42.209 ;T2B SATELLIE CORNER
COORD:N051.28.15.194:W000.27.36.239 ;T3 CORNER
COORD:N051.28.24.557:W000.27.46.951 ;PIER 5 CORNER
COORD:N051.28.24.616:W000.27.53.247 ;END OF PIER 5a CORNER
COORD:N051.28.26.678:W000.27.55.502 ;END OF PIER 5b CORNER
;COORD:N051.28.04.777:W000.26.25.028 ;LOKKI CORNER
;COORD:N051.28.06.833:W000.26.38.627 ;L1 CORNER
;COORD:N051.28.16.124:W000.26.55.983 ;T1 CORNER
;COORD:N051.28.15.831:W000.27.36.884 ;T3 CORNER
;COORD:N051.28.26.622:W000.27.48.851 ;PIER 5 CORNER
COORD:N051.28.26.523:W000.28.15.205 ;E2 CORNER