;Manchester CTR SFC-3500ft
EGCC Manchester CTR       N053.30.11.000 W002.41.23.000 N053.31.24.000 W002.31.02.000
EGCC Manchester CTR       N053.31.24.000 W002.31.02.000 N053.20.56.000 W002.31.03.000
EGCC Manchester CTR       N053.20.56.000 W002.31.03.000 N053.26.38.000 W002.22.58.000
EGCC Manchester CTR       N053.26.38.000 W002.22.58.000 N053.34.30.000 W002.04.00.000
EGCC Manchester CTR       N053.34.30.000 W002.04.00.000 N053.27.30.000 W001.54.00.000
EGCC Manchester CTR       N053.27.30.000 W001.54.00.000 N053.16.16.000 W002.01.31.000
EGCC Manchester CTR       N053.16.16.000 W002.01.31.000 N053.10.55.000 W002.22.07.000
EGCC Manchester CTR       N053.10.55.000 W002.22.07.000 N053.10.50.000 W002.32.24.000
EGCC Manchester CTR       N053.10.50.000 W002.32.24.000 N053.11.30.000 W002.37.44.000
EGCC Manchester CTR       N053.11.30.000 W002.37.44.000 N053.27.08.000 W002.37.44.000
EGCC Manchester CTR       N053.27.08.000 W002.37.44.000 N053.30.11.000 W002.41.23.000