;CAR   366.500 N054.08.28.000 W004.29.30.000 ; Withdrawn

;data not confirmed, withdrawn AIRAC 5/2011
AP    370.500 N052.06.58.800 W004.33.34.200

;data not confirmed, withdrawn AIRAC 7/2011
TL    376.000 N060.11.18.000 W001.14.47.000

;withdrawn AIRAC 1/2012
SLP   382.000 N052.50.01.000 W002.46.04.000

;withdrawn AIRAC 3/2012 (ad closed)
PY    396.500 N050.25.27.721 W004.06.44.399 ;- PLYMOUTH

;withdrawn AIRAC 4/2012
AQ    336.000 N057.08.18.000 W002.24.17.000
GUY   361.000 N049.26.10.680 W002.36.06.400

;withdrawn AIRAC 9/2014
;MTN   347.000 N051.20.27.430 E001.20.46.510 ; Manston (withdrawn)