LONDONRDR_  N051.28.12.000 W000.10.46.000 N051.28.12.000 W000.10.46.000
LONDONRDR_  N051.34.24.000 W000.10.46.000 N051.21.58.000 W000.10.46.000
SHMOCKLINE  N050.53.45.000 W000.19.00.000 N051.12.10.000 W000.24.33.000
STATHANLF_  N051.25.24.000 W003.33.07.000 N051.24.56.000 W003.25.23.000 
STATHANLF_  N051.24.56.000 W003.25.23.000 N051.24.06.000 W003.23.02.000
STATHANLF_  N051.24.06.000 W003.23.02.000 N051.22.47.000 W003.23.02.000
STATHANLF_  N051.22.47.000 W003.23.02.000 N051.21.24.000 W003.30.42.000