COPX:EGPH:*:LAKEY:*:*:EGPX:London S4:35000:*:LAKEY
COPX:EGPF:*:LAKEY:*:*:EGPX:London S4:35000:*:LAKEY

COPX:EGPH:*:SUBUK:*:*:EGPX:London S4:35000:*:SUBUK
COPX:EGPF:*:SUBUK:*:*:EGPX:London S4:35000:*:SUBUK