SECTOR:DUBS:07500:24500
OWNER:DS:DN:SN
BORDER:DW_CTR01

SECTOR:DUBN:04500:24500
OWNER:DN:DS:SN
BORDER:DW_CTR04

SECTOR:DUBC:04500:24500
OWNER:DS:DN:SN
BORDER:DW_CTR05

SECTOR:Dublin L70/L975 (DB-245):0:24500
OWNER:DN:DS:SN
BORDER:Scottish PC WEST (L70/L975) (245-285)