EGNX_APP:East Midlands Radar:134.170:NXR:X:EGNX:APP:-:-:4550:4571:N052.49.52.000:W001.19.41.000::
EGNX_F_APP:East Midlands Director:120.120:NXD:X:EGNX:APP:-:-:4550:4571:N052.49.52.000:W001.19.41.000::
EGNX_TWR:East Midlands Tower:124.000:NXT:T:EGNX:TWR:-:-:4550:4571:N052.49.52.000:W001.19.41.000::
EGNX_GND:East Midlands Ground:121.900:NXG:G:EGNX:GND:-:-:4550:4571:N052.49.52.000:W001.19.41.000::
EGNX_ATIS:East Midlands ATIS:128.220:NXI:I:EGNX:ATIS:-:-::::::