;EGVN Brize Norton CTR
EGVN Brize Norton CTR N051.45.56.002 W001.52.01.999 N051.50.06.000 W001.29.25.001
EGVN Brize Norton CTR N051.50.06.000 W001.29.25.001 N051.49.51.759 W001.28.44.618
EGVN Brize Norton CTR N051.49.51.759 W001.28.44.618 N051.49.34.931 W001.28.06.885
EGVN Brize Norton CTR N051.49.34.931 W001.28.06.885 N051.49.16.131 W001.27.31.664
EGVN Brize Norton CTR N051.49.16.131 W001.27.31.664 N051.48.55.502 W001.26.59.225
EGVN Brize Norton CTR N051.48.55.502 W001.26.59.225 N051.48.33.202 W001.26.29.814
EGVN Brize Norton CTR N051.48.33.202 W001.26.29.814 N051.48.09.399 W001.26.03.654
EGVN Brize Norton CTR N051.48.09.399 W001.26.03.654 N051.47.37.000 W001.25.36.998
EGVN Brize Norton CTR N051.47.37.000 W001.25.36.998 N051.48.33.998 W001.19.58.001
EGVN Brize Norton CTR N051.48.33.998 W001.19.58.001 N051.43.49.001 W001.17.53.002
EGVN Brize Norton CTR N051.43.49.001 W001.17.53.002 N051.39.51.001 W001.40.31.001
EGVN Brize Norton CTR N051.39.51.001 W001.40.31.001 N051.40.04.450 W001.41.12.074
EGVN Brize Norton CTR N051.40.04.450 W001.41.12.074 N051.40.20.617 W001.41.50.547
EGVN Brize Norton CTR N051.40.20.617 W001.41.50.547 N051.40.38.800 W001.42.26.597
EGVN Brize Norton CTR N051.40.38.800 W001.42.26.597 N051.40.58.858 W001.42.59.950
EGVN Brize Norton CTR N051.40.58.858 W001.42.59.950 N051.41.20.640 W001.43.30.353
EGVN Brize Norton CTR N051.41.20.640 W001.43.30.353 N051.41.43.980 W001.43.57.574
EGVN Brize Norton CTR N051.41.43.980 W001.43.57.574 N051.42.18.000 W001.44.26.999
EGVN Brize Norton CTR N051.42.18.000 W001.44.26.999 N051.41.20.000 W001.50.01.000
EGVN Brize Norton CTR N051.41.20.000 W001.50.01.000 N051.45.56.002 W001.52.01.999