EGGW Luton Gate N052.06.08.000 W000.03.00.000 N052.00.51.001 W000.03.09.000
;- LUTON CTLZ
EGGW Luton CTLZ N051.52.44.000 W000.38.28.000 N051.55.10.999 W000.24.25.999
EGGW Luton CTLZ N051.55.10.999 W000.24.25.999 N051.57.42.998 W000.21.45.000
EGGW Luton CTLZ N051.57.42.998 W000.21.45.000 N051.58.57.000 W000.14.34.001
EGGW Luton CTLZ N051.58.57.000 W000.14.34.001 N051.58.31.833 W000.13.39.850
EGGW Luton CTLZ N051.58.31.833 W000.13.39.850 N051.58.03.201 W000.12.50.357
EGGW Luton CTLZ N051.58.03.201 W000.12.50.357 N051.57.32.014 W000.12.05.095
EGGW Luton CTLZ N051.57.32.014 W000.12.05.095 N051.56.58.511 W000.11.24.407
EGGW Luton CTLZ N051.56.58.511 W000.11.24.407 N051.56.22.946 W000.10.48.604
EGGW Luton CTLZ N051.56.22.946 W000.10.48.604 N051.55.45.590 W000.10.17.958
EGGW Luton CTLZ N051.55.45.590 W000.10.17.958 N051.55.06.726 W000.09.52.702
EGGW Luton CTLZ N051.55.06.726 W000.09.52.702 N051.54.26.652 W000.09.33.028
EGGW Luton CTLZ N051.54.26.652 W000.09.33.028 N051.53.45.672 W000.09.19.087
EGGW Luton CTLZ N051.53.45.672 W000.09.19.087 N051.53.04.097 W000.09.10.984
EGGW Luton CTLZ N051.53.04.097 W000.09.10.984 N051.52.22.244 W000.09.08.780
EGGW Luton CTLZ N051.52.22.244 W000.09.08.780 N051.51.40.433 W000.09.12.493
EGGW Luton CTLZ N051.51.40.433 W000.09.12.493 N051.50.42.000 W000.09.31.000
EGGW Luton CTLZ N051.50.42.000 W000.09.31.000 N051.48.29.999 W000.15.06.001
EGGW Luton CTLZ N051.48.29.999 W000.15.06.001 N051.45.02.999 W000.34.57.000
EGGW Luton CTLZ N051.45.02.999 W000.34.57.000 N051.52.44.000 W000.38.28.000
;- LUTON CTA SCTR 1
EGGW Luton CTA N051.58.57.000 W000.14.34.001 N052.01.27.001 E000.00.00.001
EGGW Luton CTA N052.01.27.001 E000.00.00.001 N051.51.46.001 E000.00.06.001
EGGW Luton CTA N051.51.46.001 E000.00.06.001 N051.51.01.001 W000.00.24.998
EGGW Luton CTA N051.51.01.001 W000.00.24.998 N051.48.29.999 W000.15.06.001
EGGW Luton CTA N051.48.29.999 W000.15.06.001 N051.50.42.000 W000.09.31.000
EGGW Luton CTA N051.58.57.000 W000.14.34.001 N051.58.31.833 W000.13.39.850
EGGW Luton CTA N051.58.31.833 W000.13.39.850 N051.58.03.201 W000.12.50.357
EGGW Luton CTA N051.58.03.201 W000.12.50.357 N051.57.32.014 W000.12.05.095
EGGW Luton CTA N051.57.32.014 W000.12.05.095 N051.56.58.511 W000.11.24.407
EGGW Luton CTA N051.56.58.511 W000.11.24.407 N051.56.22.946 W000.10.48.604
EGGW Luton CTA N051.56.22.946 W000.10.48.604 N051.55.45.590 W000.10.17.958
EGGW Luton CTA N051.55.45.590 W000.10.17.958 N051.55.06.726 W000.09.52.702
EGGW Luton CTA N051.55.06.726 W000.09.52.702 N051.54.26.652 W000.09.33.028
EGGW Luton CTA N051.54.26.652 W000.09.33.028 N051.53.45.672 W000.09.19.087
EGGW Luton CTA N051.53.45.672 W000.09.19.087 N051.53.04.097 W000.09.10.984
EGGW Luton CTA N051.53.04.097 W000.09.10.984 N051.52.22.244 W000.09.08.780
EGGW Luton CTA N051.52.22.244 W000.09.08.780 N051.51.40.433 W000.09.12.493
EGGW Luton CTA N051.51.40.433 W000.09.12.493 N051.50.42.000 W000.09.31.000
;- LUTON CTA SCTR 2
EGGW Luton CTA N051.48.10.001 W000.41.55.000 N051.49.05.002 W000.36.47.002
EGGW Luton CTA N051.49.05.002 W000.36.47.002 N051.45.02.999 W000.34.57.000
EGGW Luton CTA N051.45.02.999 W000.34.57.000 N051.44.08.999 W000.40.05.002
EGGW Luton CTA N051.44.08.999 W000.40.05.002 N051.48.10.001 W000.41.55.000
;- LUTON CTA SCTR 3
EGGW Luton CTA N051.48.10.001 W000.41.55.000 N051.51.50.000 W000.43.36.001
EGGW Luton CTA N051.51.50.000 W000.43.36.001 N051.52.44.000 W000.38.28.000
EGGW Luton CTA N051.52.44.000 W000.38.28.000 N051.49.05.002 W000.36.47.002
EGGW Luton CTA N051.49.05.002 W000.36.47.002 N051.48.10.001 W000.41.55.000
;- LUTON CTA SCTR 4
EGGW Luton CTA N051.51.50.000 W000.43.36.001 N051.48.10.001 W000.41.56.000
EGGW Luton CTA N051.48.10.001 W000.41.56.000 N051.46.59.002 W000.48.38.002
EGGW Luton CTA N051.46.59.002 W000.48.38.002 N051.50.48.001 W000.49.26.000
EGGW Luton CTA N051.50.48.001 W000.49.26.000 N051.51.50.000 W000.43.36.001
;- LUTON CTA SCTR 5
EGGW Luton CTA N052.00.38.002 W000.28.32.002 N051.57.42.998 W000.21.45.000
EGGW Luton CTA N051.57.42.998 W000.21.45.000 N051.50.21.001 W000.29.30.998
EGGW Luton CTA N051.50.21.001 W000.29.30.998 N051.49.05.002 W000.36.47.002
EGGW Luton CTA N051.49.05.002 W000.36.47.002 N051.52.44.000 W000.38.28.000
EGGW Luton CTA N051.52.44.000 W000.38.28.000 N051.52.58.001 W000.37.09.001
EGGW Luton CTA N051.52.58.001 W000.37.09.001 N052.00.38.002 W000.28.32.002
;- LUTON CTA SCTR 6
EGGW Luton CTA N052.03.15.998 W000.34.41.002 N052.00.38.002 W000.28.32.002
EGGW Luton CTA N052.00.38.002 W000.28.32.002 N051.52.58.001 W000.37.09.001
EGGW Luton CTA N051.52.58.001 W000.37.09.001 N051.52.44.000 W000.38.28.000
EGGW Luton CTA N051.52.44.000 W000.38.28.000 N051.55.03.000 W000.43.53.000
EGGW Luton CTA N051.55.03.000 W000.43.53.000 N052.03.15.998 W000.34.41.002
;- LUTON CTA SCTR 7
EGGW Luton CTA N052.06.06.001 W000.17.12.001 N051.59.35.002 W000.10.55.999
EGGW Luton CTA N051.59.35.002 W000.10.55.999 N051.57.42.998 W000.21.45.000
EGGW Luton CTA N051.57.42.998 W000.21.45.000 N052.00.38.002 W000.28.32.002
EGGW Luton CTA N052.00.38.002 W000.28.32.002 N052.06.06.001 W000.17.12.001
;- LUTON CTA SCTR 8
EGGW Luton CTA N051.51.50.000 W000.43.36.000 N051.52.44.000 W000.38.28.000
EGGW Luton CTA N051.52.44.000 W000.38.28.000 N051.55.03.000 W000.43.53.000
EGGW Luton CTA N051.55.03.000 W000.43.53.000 N051.51.50.000 W000.43.36.000
;- LUTON CTA SCTR 9
EGGW Luton CTA N051.51.50.000 W000.43.36.000 N051.55.03.000 W000.43.53.000 
EGGW Luton CTA N051.57.49.000 W000.40.48.000 N051.53.56.000 W000.50.06.000
EGGW Luton CTA N051.53.56.000 W000.50.06.000 N051.50.48.000 W000.49.26.000
EGGW Luton CTA N051.50.48.000 W000.49.26.000 N051.51.50.000 W000.43.36.000
;- LUTON LFC
EGGW Luton LFC N051.46.49.155 W000.25.35.823 N051.46.39.351 W000.25.41.484
EGGW Luton LFC N051.47.26.371 W000.22.26.234 N051.47.11.130 W000.22.35.625
EGGW Luton LFC N051.47.31.599 W000.25.08.644 N051.47.01.665 W000.25.27.411
EGGW Luton LFC N051.48.08.855 W000.22.01.718 N051.47.38.906 W000.22.19.594
EGGW Luton LFC N051.48.14.038 W000.24.41.468 N051.47.44.655 W000.25.00.213
EGGW Luton LFC N051.48.51.871 W000.21.36.298 N051.48.21.926 W000.21.54.176
EGGW Luton LFC N051.48.56.482 W000.24.14.288 N051.48.27.097 W000.24.33.036
EGGW Luton LFC N051.49.34.892 W000.21.10.875 N051.49.04.395 W000.21.28.771
EGGW Luton LFC N051.49.39.475 W000.23.47.090 N051.49.08.990 W000.24.05.875
EGGW Luton LFC N051.50.17.908 W000.20.45.456 N051.49.47.412 W000.21.03.351
EGGW Luton LFC N051.50.21.914 W000.23.19.910 N051.49.51.981 W000.23.38.676
EGGW Luton LFC N051.50.38.600 W000.20.33.215 N051.50.30.432 W000.20.37.927
EGGW Luton LFC N051.51.01.720 W000.20.35.997 N051.50.38.600 W000.20.33.215
EGGW Luton LFC N051.51.06.854 W000.23.12.195 N051.50.34.960 W000.23.10.593
EGGW Luton LFC N051.51.47.371 W000.20.38.920 N051.51.18.788 W000.20.38.094
EGGW Luton LFC N051.51.52.472 W000.23.13.339 N051.51.20.594 W000.23.12.622
EGGW Luton LFC N051.52.33.045 W000.20.43.615 N051.52.01.141 W000.20.41.125
EGGW Luton LFC N051.52.38.082 W000.23.13.599 N051.52.06.217 W000.23.13.772
EGGW Luton LFC N051.52.51.195 W000.20.44.789 N051.52.46.804 W000.20.44.936
EGGW Luton LFC N051.53.17.900 W000.20.30.573 N051.52.51.195 W000.20.44.789
EGGW Luton LFC N051.53.22.335 W000.22.57.021 N051.52.51.811 W000.23.13.137
EGGW Luton LFC N051.54.01.526 W000.20.08.685 N051.53.31.001 W000.20.24.806
EGGW Luton LFC N051.54.05.972 W000.22.36.018 N051.53.35.432 W000.22.51.253
EGGW Luton LFC N051.54.45.146 W000.19.46.796 N051.54.15.159 W000.20.02.011
EGGW Luton LFC N051.54.49.593 W000.22.14.131 N051.54.19.053 W000.22.29.365
EGGW Luton LFC N051.55.28.754 W000.19.24.024 N051.54.58.232 W000.19.40.140
EGGW Luton LFC N051.55.33.213 W000.21.52.243 N051.55.02.665 W000.22.06.589
EGGW Luton LFC N051.56.12.364 W000.19.01.246 N051.55.41.840 W000.19.17.367
EGGW Luton LFC N051.56.16.824 W000.21.29.469 N051.55.46.286 W000.21.44.701
EGGW Luton LFC N051.56.57.206 W000.18.47.314 N051.56.25.460 W000.18.55.478
EGGW Luton LFC N051.57.01.665 W000.21.15.537 N051.56.29.385 W000.21.24.609
EGGW Luton LFC N051.57.42.076 W000.18.35.156 N051.57.10.330 W000.18.43.322
EGGW Luton LFC N051.57.47.054 W000.21.01.587 N051.57.15.327 W000.21.10.637
EGGW Luton LFC N051.58.17.100 W000.18.25.995 N051.57.55.749 W000.18.31.146