;Bournemouth CTR
EGHH Bournemouth CTR N050.53.12.001 W001.43.00.998 N050.52.46.614 W001.42.08.405
EGHH Bournemouth CTR N050.52.46.614 W001.42.08.405 N050.52.17.441 W001.41.20.894
EGHH Bournemouth CTR N050.52.17.441 W001.41.20.894 N050.51.45.762 W001.40.37.585
EGHH Bournemouth CTR N050.51.45.762 W001.40.37.585 N050.51.11.817 W001.39.58.808
EGHH Bournemouth CTR N050.51.11.817 W001.39.58.808 N050.50.35.863 W001.39.24.857
EGHH Bournemouth CTR N050.50.35.863 W001.39.24.857 N050.49.58.176 W001.38.55.991
EGHH Bournemouth CTR N050.49.58.176 W001.38.55.991 N050.49.19.041 W001.38.32.429
EGHH Bournemouth CTR N050.49.19.041 W001.38.32.429 N050.48.38.757 W001.38.14.352
EGHH Bournemouth CTR N050.48.38.757 W001.38.14.352 N050.47.57.629 W001.38.01.896
EGHH Bournemouth CTR N050.47.57.629 W001.38.01.896 N050.47.15.972 W001.37.55.156
EGHH Bournemouth CTR N050.47.15.972 W001.37.55.156 N050.46.34.102 W001.37.54.185
EGHH Bournemouth CTR N050.46.34.102 W001.37.54.185 N050.45.52.338 W001.37.58.988
EGHH Bournemouth CTR N050.45.52.338 W001.37.58.988 N050.45.10.997 W001.38.09.530
EGHH Bournemouth CTR N050.45.10.997 W001.38.09.530 N050.44.40.999 W001.38.24.000
EGHH Bournemouth CTR N050.44.40.999 W001.38.24.000 N050.41.11.000 W001.59.30.001
EGHH Bournemouth CTR N050.41.11.000 W001.59.30.001 N050.41.40.848 W002.00.16.362
EGHH Bournemouth CTR N050.41.40.848 W002.00.16.362 N050.42.14.165 W002.00.56.480
EGHH Bournemouth CTR N050.42.14.165 W002.00.56.480 N050.42.49.566 W002.01.31.853
EGHH Bournemouth CTR N050.42.49.566 W002.01.31.853 N050.43.26.782 W002.02.02.211
EGHH Bournemouth CTR N050.43.26.782 W002.02.02.211 N050.44.05.529 W002.02.27.324
EGHH Bournemouth CTR N050.44.05.529 W002.02.27.324 N050.44.45.513 W002.02.47.001
EGHH Bournemouth CTR N050.44.45.513 W002.02.47.001 N050.45.26.428 W002.03.01.091
EGHH Bournemouth CTR N050.45.26.428 W002.03.01.091 N050.46.07.965 W002.03.09.489
EGHH Bournemouth CTR N050.46.07.965 W002.03.09.489 N050.46.49.806 W002.03.12.128
EGHH Bournemouth CTR N050.46.49.806 W002.03.12.128 N050.47.31.634 W002.03.08.991
EGHH Bournemouth CTR N050.47.31.634 W002.03.08.991 N050.48.13.130 W002.03.00.099
EGHH Bournemouth CTR N050.48.13.130 W002.03.00.099 N050.48.53.977 W002.02.45.522
EGHH Bournemouth CTR N050.48.53.977 W002.02.45.522 N050.49.33.866 W002.02.25.370
EGHH Bournemouth CTR N050.49.33.866 W002.02.25.370 N050.50.03.001 W002.02.04.999
EGHH Bournemouth CTR N050.50.03.001 W002.02.04.999 N050.53.12.001 W001.43.00.998