EGHH_APP:Bournemouth Radar:119.470:HHR:B:EGHH:APP:-:-:1730:1757:N050.46.48.000:W001.50.33.000::
EGHH_F_APP:Bournemouth Director:118.650:HHD:B:EGHH:APP:-:-:1730:1757:N050.46.48.000:W001.50.33.000::
EGHH_TWR:Bournemouth Tower:125.600:HHT:B:EGHH:TWR:-:-:1730:1757:N050.46.48.000:W001.50.33.000::
EGHH_GND:Bournemouth Ground:121.700:HHG:B:EGHH:GND:-:-:1730:1757:N050.46.48.000:W001.50.33.000::
EGHH_ATIS:Bournemouth ATIS:133.720:HHI:B:EGHH:ATIS:-:-::::::