;Birmingham CTA-1
EGBB Birmingham CTA N052.28.35.000 W001.57.58.000 N052.33.34.999 W002.03.42.001
EGBB Birmingham CTA N052.33.34.999 W002.03.42.001 N052.34.34.299 W002.02.47.437
EGBB Birmingham CTA N052.34.34.299 W002.02.47.437 N052.35.29.239 W002.01.41.553
EGBB Birmingham CTA N052.35.29.239 W002.01.41.553 N052.36.20.472 W002.00.28.061
EGBB Birmingham CTA N052.36.20.472 W002.00.28.061 N052.37.07.606 W001.59.07.522
EGBB Birmingham CTA N052.37.07.606 W001.59.07.522 N052.37.50.283 W001.57.40.547
EGBB Birmingham CTA N052.37.50.283 W001.57.40.547 N052.38.28.178 W001.56.07.800
EGBB Birmingham CTA N052.38.28.178 W001.56.07.800 N052.39.01.004 W001.54.29.985
EGBB Birmingham CTA N052.39.01.004 W001.54.29.985 N052.39.28.509 W001.52.47.848
EGBB Birmingham CTA N052.39.28.509 W001.52.47.848 N052.39.50.486 W001.51.02.165
EGBB Birmingham CTA N052.39.50.486 W001.51.02.165 N052.40.06.766 W001.49.13.741
EGBB Birmingham CTA N052.40.06.766 W001.49.13.741 N052.40.14.999 W001.47.44.002
EGBB Birmingham CTA N052.40.14.999 W001.47.44.002 N052.35.07.001 W001.41.53.999
EGBB Birmingham CTA N052.28.35.000 W001.57.58.000 N052.29.16.300 W001.57.47.043
EGBB Birmingham CTA N052.29.16.300 W001.57.47.043 N052.29.56.496 W001.57.27.784
EGBB Birmingham CTA N052.29.56.496 W001.57.27.784 N052.30.35.517 W001.57.02.849
EGBB Birmingham CTA N052.30.35.517 W001.57.02.849 N052.31.13.065 W001.56.32.428
EGBB Birmingham CTA N052.31.13.065 W001.56.32.428 N052.31.48.854 W001.55.56.752
EGBB Birmingham CTA N052.31.48.854 W001.55.56.752 N052.32.22.612 W001.55.16.093
EGBB Birmingham CTA N052.32.22.612 W001.55.16.093 N052.32.54.083 W001.54.30.761
EGBB Birmingham CTA N052.32.54.083 W001.54.30.761 N052.33.23.026 W001.53.41.100
EGBB Birmingham CTA N052.33.23.026 W001.53.41.100 N052.33.49.222 W001.52.47.488
EGBB Birmingham CTA N052.33.49.222 W001.52.47.488 N052.34.12.470 W001.51.50.334
EGBB Birmingham CTA N052.34.12.470 W001.51.50.334 N052.34.32.595 W001.50.50.072
EGBB Birmingham CTA N052.34.32.595 W001.50.50.072 N052.34.49.442 W001.49.47.162
EGBB Birmingham CTA N052.34.49.442 W001.49.47.162 N052.35.02.884 W001.48.42.080
EGBB Birmingham CTA N052.35.02.884 W001.48.42.080 N052.35.12.819 W001.47.35.324
EGBB Birmingham CTA N052.35.12.819 W001.47.35.324 N052.35.19.170 W001.46.27.401
EGBB Birmingham CTA N052.35.19.170 W001.46.27.401 N052.35.21.890 W001.45.18.828
EGBB Birmingham CTA N052.35.21.890 W001.45.18.828 N052.35.20.958 W001.44.10.128
EGBB Birmingham CTA N052.35.20.958 W001.44.10.128 N052.35.16.380 W001.43.01.821
EGBB Birmingham CTA N052.35.16.380 W001.43.01.821 N052.35.07.001 W001.41.53.999
;Birmingham CTA-2
EGBB Birmingham CTA N052.26.26.002 W001.32.03.001 N052.21.18.000 W001.26.16.001
EGBB Birmingham CTA N052.21.18.000 W001.26.16.001 N052.20.17.801 W001.27.07.833
EGBB Birmingham CTA N052.20.17.801 W001.27.07.833 N052.19.22.366 W001.28.12.592
EGBB Birmingham CTA N052.19.22.366 W001.28.12.592 N052.18.30.581 W001.29.25.034
EGBB Birmingham CTA N052.18.30.581 W001.29.25.034 N052.17.42.841 W001.30.44.606
EGBB Birmingham CTA N052.17.42.841 W001.30.44.606 N052.16.59.509 W001.32.10.703
EGBB Birmingham CTA N052.16.59.509 W001.32.10.703 N052.16.20.914 W001.33.42.671
EGBB Birmingham CTA N052.16.20.914 W001.33.42.671 N052.15.47.350 W001.35.19.809
EGBB Birmingham CTA N052.15.47.350 W001.35.19.809 N052.15.19.073 W001.37.01.377
EGBB Birmingham CTA N052.15.19.073 W001.37.01.377 N052.14.56.298 W001.38.46.603
EGBB Birmingham CTA N052.14.56.298 W001.38.46.603 N052.14.39.198 W001.40.34.687
EGBB Birmingham CTA N052.14.39.198 W001.40.34.687 N052.14.30.998 W001.41.58.999
EGBB Birmingham CTA N052.14.30.998 W001.41.58.999 N052.19.32.999 W001.47.39.998
EGBB Birmingham CTA N052.26.26.002 W001.32.03.001 N052.25.44.433 W001.32.10.745
EGBB Birmingham CTA N052.25.44.433 W001.32.10.745 N052.25.03.843 W001.32.27.635
EGBB Birmingham CTA N052.25.03.843 W001.32.27.635 N052.24.24.305 W001.32.50.265
EGBB Birmingham CTA N052.24.24.305 W001.32.50.265 N052.23.46.118 W001.33.18.465
EGBB Birmingham CTA N052.23.46.118 W001.33.18.465 N052.23.09.575 W001.33.52.019
EGBB Birmingham CTA N052.23.09.575 W001.33.52.019 N052.22.34.953 W001.34.30.672
EGBB Birmingham CTA N052.22.34.953 W001.34.30.672 N052.22.02.515 W001.35.14.129
EGBB Birmingham CTA N052.22.02.515 W001.35.14.129 N052.21.32.509 W001.36.02.061
EGBB Birmingham CTA N052.21.32.509 W001.36.02.061 N052.21.05.163 W001.36.54.102
EGBB Birmingham CTA N052.21.05.163 W001.36.54.102 N052.20.40.684 W001.37.49.856
EGBB Birmingham CTA N052.20.40.684 W001.37.49.856 N052.20.19.260 W001.38.48.899
EGBB Birmingham CTA N052.20.19.260 W001.38.48.899 N052.20.01.053 W001.39.50.782
EGBB Birmingham CTA N052.20.01.053 W001.39.50.782 N052.19.46.202 W001.40.55.033
EGBB Birmingham CTA N052.19.46.202 W001.40.55.033 N052.19.34.820 W001.42.01.164
EGBB Birmingham CTA N052.19.34.820 W001.42.01.164 N052.19.26.994 W001.43.08.671
EGBB Birmingham CTA N052.19.26.994 W001.43.08.671 N052.19.22.782 W001.44.17.040
EGBB Birmingham CTA N052.19.22.782 W001.44.17.040 N052.19.22.218 W001.45.25.752
EGBB Birmingham CTA N052.19.22.218 W001.45.25.752 N052.19.25.305 W001.46.34.283
EGBB Birmingham CTA N052.19.25.305 W001.46.34.283 N052.19.32.999 W001.47.39.998
;Birmingham CTA-3
EGBB Birmingham CTA N052.37.08.000 W002.07.48.000 N052.38.19.622 W002.06.21.523
EGBB Birmingham CTA N052.38.19.622 W002.06.21.523 N052.39.25.074 W002.04.42.597
EGBB Birmingham CTA N052.39.25.074 W002.04.42.597 N052.40.25.024 W002.02.54.686
EGBB Birmingham CTA N052.40.25.024 W002.02.54.686 N052.41.19.015 W002.00.58.611
EGBB Birmingham CTA N052.41.19.015 W002.00.58.611 N052.42.06.635 W001.58.55.256
EGBB Birmingham CTA N052.42.06.635 W001.58.55.256 N052.42.47.523 W001.56.45.559
EGBB Birmingham CTA N052.42.47.523 W001.56.45.559 N052.43.21.367 W001.54.30.507
EGBB Birmingham CTA N052.43.21.367 W001.54.30.507 N052.43.41.999 W001.52.37.999
EGBB Birmingham CTA N052.37.08.000 W002.07.48.000 N052.33.35.680 W002.03.44.039
EGBB Birmingham CTA N052.33.35.680 W002.03.44.039 N052.34.34.788 W002.02.48.901
EGBB Birmingham CTA N052.34.34.788 W002.02.48.901 N052.35.29.698 W002.01.42.949
EGBB Birmingham CTA N052.35.29.698 W002.01.42.949 N052.36.20.896 W002.00.29.394
EGBB Birmingham CTA N052.36.20.896 W002.00.29.394 N052.37.07.993 W001.59.08.796
EGBB Birmingham CTA N052.37.07.993 W001.59.08.796 N052.37.50.630 W001.57.41.769
EGBB Birmingham CTA N052.37.50.630 W001.57.41.769 N052.38.28.483 W001.56.08.975
EGBB Birmingham CTA N052.38.28.483 W001.56.08.975 N052.39.01.264 W001.54.31.120
EGBB Birmingham CTA N052.39.01.264 W001.54.31.120 N052.39.28.723 W001.52.48.949
EGBB Birmingham CTA N052.39.28.723 W001.52.48.949 N052.39.50.651 W001.51.03.239
EGBB Birmingham CTA N052.39.50.651 W001.51.03.239 N052.40.06.881 W001.49.14.795
EGBB Birmingham CTA N052.40.06.881 W001.49.14.795 N052.40.17.290 W001.47.24.443
EGBB Birmingham CTA N052.40.17.290 W001.47.24.443 N052.40.21.799 W001.45.33.021
EGBB Birmingham CTA N052.40.21.799 W001.45.33.021 N052.40.19.589 W001.43.50.041
EGBB Birmingham CTA N052.40.19.589 W001.43.50.041 N052.43.41.999 W001.52.37.999
;Birmingham CTA-4
EGBB Birmingham CTA N052.23.29.000 W001.24.46.001 N052.17.49.999 W001.22.05.002
EGBB Birmingham CTA N052.17.49.999 W001.22.05.002 N052.16.36.205 W001.23.26.358
EGBB Birmingham CTA N052.16.36.205 W001.23.26.358 N052.15.29.851 W001.25.03.654
EGBB Birmingham CTA N052.15.29.851 W001.25.03.654 N052.14.28.917 W001.26.50.070
EGBB Birmingham CTA N052.14.28.917 W001.26.50.070 N052.13.33.866 W001.28.44.796
EGBB Birmingham CTA N052.13.33.866 W001.28.44.796 N052.12.45.118 W001.30.46.960
EGBB Birmingham CTA N052.12.45.118 W001.30.46.960 N052.12.03.043 W001.32.55.631
EGBB Birmingham CTA N052.12.03.043 W001.32.55.631 N052.11.27.963 W001.35.09.829
EGBB Birmingham CTA N052.11.27.963 W001.35.09.829 N052.11.00.143 W001.37.28.535
EGBB Birmingham CTA N052.11.00.143 W001.37.28.535 N052.10.39.000 W001.40.12.000
EGBB Birmingham CTA N052.10.39.000 W001.40.12.000 N052.14.30.998 W001.41.58.999
EGBB Birmingham CTA N052.23.29.000 W001.24.46.001 N052.22.24.068 W001.25.19.043
EGBB Birmingham CTA N052.22.24.068 W001.25.19.043 N052.21.22.375 W001.26.06.156
EGBB Birmingham CTA N052.21.22.375 W001.26.06.156 N052.20.23.419 W001.27.01.914
EGBB Birmingham CTA N052.20.23.419 W001.27.01.914 N052.19.27.648 W001.28.05.892
EGBB Birmingham CTA N052.19.27.648 W001.28.05.892 N052.18.35.488 W001.29.17.603
EGBB Birmingham CTA N052.18.35.488 W001.29.17.603 N052.17.47.334 W001.30.36.502
EGBB Birmingham CTA N052.17.47.334 W001.30.36.502 N052.17.03.554 W001.32.01.988
EGBB Birmingham CTA N052.17.03.554 W001.32.01.988 N052.16.24.481 W001.33.33.410
EGBB Birmingham CTA N052.16.24.481 W001.33.33.410 N052.15.50.412 W001.35.10.072
EGBB Birmingham CTA N052.15.50.412 W001.35.10.072 N052.15.21.607 W001.36.51.240
EGBB Birmingham CTA N052.15.21.607 W001.36.51.240 N052.14.58.283 W001.38.36.143
EGBB Birmingham CTA N052.14.58.283 W001.38.36.143 N052.14.40.621 W001.40.23.982
EGBB Birmingham CTA N052.14.40.621 W001.40.23.982 N052.14.30.998 W001.41.58.999
;Birmingham CTA-5
EGBB Birmingham CTA N052.33.34.999 W002.03.42.001 N052.14.30.998 W001.41.58.999
EGBB Birmingham CTA N052.14.30.998 W001.41.58.999 N052.14.23.239 W001.43.49.879
EGBB Birmingham CTA N052.14.23.239 W001.43.49.879 N052.14.22.372 W001.45.41.536
EGBB Birmingham CTA N052.14.22.372 W001.45.41.536 N052.14.27.438 W001.47.32.893
EGBB Birmingham CTA N052.14.27.438 W001.47.32.893 N052.14.47.000 W001.50.12.001
EGBB Birmingham CTA N052.14.47.000 W001.50.12.001 N052.28.45.998 W002.06.10.001
EGBB Birmingham CTA N052.28.45.998 W002.06.10.001 N052.29.53.560 W002.05.57.618
EGBB Birmingham CTA N052.29.53.560 W002.05.57.618 N052.30.59.669 W002.05.31.163
EGBB Birmingham CTA N052.30.59.669 W002.05.31.163 N052.32.04.122 W002.04.55.353
EGBB Birmingham CTA N052.32.04.122 W002.04.55.353 N052.33.34.999 W002.03.42.001
;Birmingham CTA-6
EGBB Birmingham CTA N052.37.08.000 W002.07.48.000 N052.33.34.999 W002.03.42.001
EGBB Birmingham CTA N052.28.45.998 W002.06.10.001 N052.29.53.560 W002.05.57.618
EGBB Birmingham CTA N052.29.53.560 W002.05.57.618 N052.30.59.669 W002.05.31.163
EGBB Birmingham CTA N052.30.59.669 W002.05.31.163 N052.32.04.122 W002.04.55.353
EGBB Birmingham CTA N052.32.04.122 W002.04.55.353 N052.33.34.999 W002.03.42.001
EGBB Birmingham CTA N052.28.45.998 W002.06.10.001 N052.32.16.001 W002.10.10.999
EGBB Birmingham CTA N052.32.16.001 W002.10.10.999 N052.37.08.000 W002.07.48.000
;Birmingham CTA-7
EGBB Birmingham CTA N052.32.16.001 W002.10.10.999 N052.16.34.000 W001.52.14.002
EGBB Birmingham CTA N052.16.34.000 W001.52.14.002 N052.15.43.999 W002.07.54.998
EGBB Birmingham CTA N052.15.43.999 W002.07.54.998 N052.18.13.000 W002.11.30.001
EGBB Birmingham CTA N052.18.13.000 W002.11.30.001 N052.25.35.000 W002.12.47.002
EGBB Birmingham CTA N052.25.35.000 W002.12.47.002 N052.32.16.001 W002.10.10.999
;Birmingham CTA-8
EGBB Birmingham CTA N052.40.19.999 W001.43.50.002 N052.23.29.000 W001.24.46.001
EGBB Birmingham CTA N052.23.29.000 W001.24.46.001 N052.22.24.068 W001.25.19.043
EGBB Birmingham CTA N052.22.24.068 W001.25.19.043 N052.21.18.000 W001.26.16.001
EGBB Birmingham CTA N052.21.18.000 W001.26.16.001 N052.40.14.999 W001.47.44.002
EGBB Birmingham CTA N052.40.14.999 W001.47.44.002 N052.40.21.383 W001.45.52.873
EGBB Birmingham CTA N052.40.21.383 W001.45.52.873 N052.40.19.999 W001.43.50.002
;Birmingham CTA-9
EGBB Birmingham CTA N052.40.25.000 W002.11.35.002 N052.37.08.000 W002.07.48.000
EGBB Birmingham CTA N052.37.08.000 W002.07.48.000 N052.34.41.999 W002.08.60.000
EGBB Birmingham CTA N052.34.41.999 W002.08.60.000 N052.38.47.000 W002.14.44.002
EGBB Birmingham CTA N052.38.47.000 W002.14.44.002 N052.40.25.000 W002.11.35.002